# Material file for dome_glass_001_lod1.obj

newmtl textures/trak5/glass
	Ns 0
	d 1
	illum 2
	Kd 0.8 0.8 0.8
	Ks 0.0 0.0 0.0
	Ka 0.2 0.2 0.2

newmtl textures/glass/glass_blue
	Ns 0
	d 1
	illum 2
	Kd 0.8 0.8 0.8
	Ks 0.0 0.0 0.0
	Ka 0.2 0.2 0.2

newmtl textures/evil8_base/e8metal03c_shiney
	Ns 0
	d 1
	illum 2
	Kd 0.8 0.8 0.8
	Ks 0.0 0.0 0.0
	Ka 0.2 0.2 0.2

