# Wavefront OBJ file
# Exported by Misfit Model 3D 1.3.8
# Tue Jul 23 20:37:21 2013

mtllib dome_glass_001.mtl

# 181 Vertices
v -0.000093 -19.510561 0.000222
v 20.853743 -6.917916 -15.150974
v -7.965544 -6.917917 -24.514933
v -25.77685 -6.917915 0.000216
v -7.965554 -6.917912 24.515371
v 20.853739 -6.917913 15.151422
v 12.039876 -16.136371 -8.747324
v 24.227571 -8.955213 0.000226
v 12.039872 -16.13637 8.747773
v 7.486662 -8.955209 23.042103
v -4.598953 -16.13637 14.154049
v -19.600691 -8.955211 14.240882
v -14.88231 -16.136372 0.000219
v -19.600683 -8.955213 -14.240448
v -4.598948 -16.136371 -14.15361
v 7.48667 -8.955214 -23.041659
v 5.78372 -18.77327 -4.201963
v 12.596143 -17.144085 0.000224
v 5.783719 -18.77327 4.202409
v 3.892356 -17.144085 11.979954
v -2.209315 -18.77327 6.799502
v -10.190664 -17.144085 7.404102
v -7.149279 -18.77327 0.000221
v -10.190661 -17.144087 -7.403662
v -2.209312 -18.773269 -6.799058
v 3.89236 -17.144087 -11.979512
v -4.572244 -1.553425 -28.143076
v 4.061863 -2.262766 -27.95376
v -0.84751 -8.354726 -24.703997
v -28.178829 -1.553422 -4.348163
v -25.330694 -2.262764 -12.501185
v -23.757067 -8.354724 -6.827861
v -12.843361 -1.55342 25.456064
v -19.717222 -2.262761 20.227907
v -13.835292 -8.354722 20.484449
v 20.241068 -1.55342 20.081182
v 13.144652 -2.262761 25.003023
v 15.206254 -8.354722 19.488252
v 25.3529 -1.553423 -13.044911
v 27.840937 -2.262764 -4.774886
v 23.233147 -8.354725 -8.439742
v 18.92577 -13.372661 -4.583257
v 17.351347 -11.788127 -12.606334
v 17.351341 -11.788126 12.606783
v 18.92577 -13.37266 4.583707
v 23.233145 -8.354723 8.440194
v 10.207466 -13.372658 16.583416
v -6.627758 -11.788125 20.398061
v 1.489166 -13.372657 19.41616
v -0.84752 -8.354721 24.704435
v -12.617339 -13.372658 14.832676
v -21.447653 -11.788127 0.000218
v -18.005541 -13.372659 7.416447
v -23.757067 -8.354723 6.828294
v -18.005541 -13.37266 -7.416011
v -6.627749 -11.788128 -20.397618
v -12.617332 -13.37266 -14.832239
v -13.835286 -8.354726 -20.484013
v 1.489173 -13.372662 -19.415717
v 10.207472 -13.37266 -16.582968
v 15.206261 -8.354726 -19.487805
v 20.241074 -1.553424 -20.080734
v -12.843351 -1.553424 -25.455631
v -28.178829 -1.553422 4.348593
v -4.572254 -1.55342 28.143515
v 25.352894 -1.553421 13.04536
v 13.144662 -2.262765 -25.002579
v -19.717215 -2.262765 -20.227474
v -25.330702 -2.262762 12.501616
v 4.061852 -2.262761 27.954203
v 27.840935 -2.262763 4.775335
v -0.000093 -18.446457 0.000094
v -0.000093 -20.427069 0.000094
v 1.013471 -18.94161 0.000094
v 0.819897 -19.931915 -0.595663
v 0.313115 -18.94161 -0.963862
v -0.313301 -19.931915 -0.963862
v -0.820083 -18.94161 -0.595664
v -1.013657 -19.931915 0.000094
v -0.820083 -18.94161 0.595852
v -0.313301 -19.931915 0.96405
v 0.313115 -18.94161 0.964051
v 0.819897 -19.931915 0.595852
v 0.098513 -2.710179 -29.474104
v -5.704253 -2.71018 -28.90258
v -11.284023 -2.71018 -27.209976
v -16.426369 -2.71018 -24.461336
v -20.933672 -2.71018 -20.762289
v -24.632721 -2.710181 -16.254986
v -27.381361 -2.710181 -11.112641
v -29.073967 -2.710182 -5.532872
v -29.645491 -2.710183 0.269895
v -29.073969 -2.710183 6.072661
v -27.381365 -2.710184 11.652431
v -24.632725 -2.710185 16.794777
v -20.933676 -2.710185 21.30208
v -16.426374 -2.710186 25.001129
v -11.284029 -2.710186 27.749769
v -5.704259 -2.710187 29.442375
v 0.098507 -2.710187 30.013899
v 5.901274 -2.710187 29.442377
v 11.481044 -2.710187 27.749773
v 16.623388 -2.710186 25.001133
v 21.130693 -2.710186 21.302086
v 24.829742 -2.710185 16.794783
v 27.578382 -2.710185 11.652438
v 29.270988 -2.710184 6.072669
v 29.842512 -2.710183 0.269902
v 29.27099 -2.710183 -5.532864
v 27.578386 -2.710182 -11.112634
v 24.829746 -2.710182 -16.25498
v 21.130699 -2.710181 -20.762283
v 16.623398 -2.710181 -24.461332
v 11.481052 -2.71018 -27.209974
v 5.901283 -2.71018 -28.90258
v 0.098514 -1.498963 -31.115238
v -6.024423 -1.498963 -30.512182
v -11.912059 -1.498963 -28.726189
v -17.338135 -1.498963 -25.82589
v -22.094131 -1.498963 -21.922747
v -25.997276 -1.498964 -17.16675
v -28.897575 -1.498964 -11.740675
v -30.683571 -1.498965 -5.853039
v -31.286629 -1.498966 0.269898
v -30.683573 -1.498966 6.392835
v -28.897577 -1.498967 12.280471
v -25.99728 -1.498968 17.706547
v -22.094137 -1.498968 22.462543
v -17.33814 -1.498969 26.365688
v -11.912066 -1.498969 29.265987
v -6.02443 -1.498969 31.051983
v 0.098507 -1.498969 31.655041
v 6.221444 -1.498969 31.051985
v 12.10908 -1.498969 29.265991
v 17.535156 -1.498969 26.365694
v 22.291153 -1.498969 22.462549
v 26.1943 -1.498968 17.706554
v 29.094597 -1.498968 12.280478
v 30.880594 -1.498967 6.392843
v 31.483652 -1.498966 0.269906
v 30.880596 -1.498966 -5.853031
v 29.094603 -1.498965 -11.740666
v 26.194304 -1.498964 -17.166744
v 22.291161 -1.498964 -21.922739
v 17.535166 -1.498963 -25.825886
v 12.10909 -1.498963 -28.726185
v 6.221454 -1.498963 -30.51218
v 0.098515 -0.236477 -34.57935
v -6.700237 -0.236477 -33.909729
v -13.237718 -0.236477 -31.926609
v -19.262693 -0.236478 -28.706192
v -24.543629 -0.236478 -24.372242
v -28.877583 -0.236478 -19.091307
v -32.098 -0.236479 -13.06633
v -34.081123 -0.23648 -6.528851
v -34.750744 -0.23648 0.269901
v -34.081123 -0.236481 7.068654
v -32.098003 -0.236482 13.606133
v -28.877586 -0.236482 19.631109
v -24.543634 -0.236483 24.912046
v -19.262699 -0.236484 29.245998
v -13.237724 -0.236484 32.466415
v -6.700245 -0.236484 34.449539
v 0.098507 -0.236484 35.11916
v 6.897259 -0.236484 34.449543
v 13.434739 -0.236484 32.466419
v 19.459717 -0.236484 29.246004
v 24.740652 -0.236484 24.912052
v 29.074604 -0.236483 19.631117
v 32.295021 -0.236482 13.606142
v 34.278145 -0.236482 7.068663
v 34.947765 -0.236481 0.269911
v 34.278149 -0.23648 -6.528842
v 32.295025 -0.23648 -13.066321
v 29.074612 -0.236479 -19.091299
v 24.74066 -0.236478 -24.372234
v 19.459724 -0.236478 -28.706186
v 13.43475 -0.236478 -31.926605
v 6.897271 -0.236477 -33.909729
v 0.098511 -2.710183 0.269898
v 0.098512 -0.236481 0.269905

# 996 Texture Coordinates
vt 0.0 1.0
vt 0.0 0.0
vt 1.0 0.0
vt 0.0 1.0
vt 0.0 0.0
vt 1.0 0.0
vt 0.0 1.0
vt 0.0 0.0
vt 1.0 0.0
vt 0.0 1.0
vt 0.0 0.0
vt 1.0 0.0
vt 0.0 1.0
vt 0.0 0.0
vt 1.0 0.0
vt 0.0 1.0
vt 0.0 0.0
vt 1.0 0.0
vt 0.0 1.0
vt 0.0 0.0
vt 1.0 0.0
vt 0.0 1.0
vt 0.0 0.0
vt 1.0 0.0
vt 0.0 1.0
vt 0.0 0.0
vt 1.0 0.0
vt 0.0 1.0
vt 0.0 0.0
vt 1.0 0.0
vt 0.0 1.0
vt 0.0 0.0
vt 1.0 0.0
vt 0.0 1.0
vt 0.0 0.0
vt 1.0 0.0
vt 0.0 1.0
vt 0.0 0.0
vt 1.0 0.0
vt 0.0 1.0
vt 0.0 0.0
vt 1.0 0.0
vt 0.0 1.0
vt 0.0 0.0
vt 1.0 0.0
vt 0.0 1.0
vt 0.0 0.0
vt 1.0 0.0
vt 0.0 1.0
vt 0.0 0.0
vt 1.0 0.0
vt 0.0 1.0
vt 0.0 0.0
vt 1.0 0.0
vt 0.0 1.0
vt 0.0 0.0
vt 1.0 0.0
vt 0.0 1.0
vt 0.0 0.0
vt 1.0 0.0
vt 0.0 1.0
vt 0.0 0.0
vt 1.0 0.0
vt 0.0 1.0
vt 0.0 0.0
vt 1.0 0.0
vt 0.0 1.0
vt 0.0 0.0
vt 1.0 0.0
vt 0.0 1.0
vt 0.0 0.0
vt 1.0 0.0
vt 0.0 1.0
vt 0.0 0.0
vt 1.0 0.0
vt 0.0 1.0
vt 0.0 0.0
vt 1.0 0.0
vt 0.0 1.0
vt 0.0 0.0
vt 1.0 0.0
vt 0.0 1.0
vt 0.0 0.0
vt 1.0 0.0
vt 0.0 1.0
vt 0.0 0.0
vt 1.0 0.0
vt 0.0 1.0
vt 0.0 0.0
vt 1.0 0.0
vt 0.0 1.0
vt 0.0 0.0
vt 1.0 0.0
vt 0.0 1.0
vt 0.0 0.0
vt 1.0 0.0
vt 0.0 1.0
vt 0.0 0.0
vt 1.0 0.0
vt 0.0 1.0
vt 0.0 0.0
vt 1.0 0.0
vt 0.0 1.0
vt 0.0 0.0
vt 1.0 0.0
vt 0.0 1.0
vt 0.0 0.0
vt 1.0 0.0
vt 0.0 1.0
vt 0.0 0.0
vt 1.0 0.0
vt 0.0 1.0
vt 0.0 0.0
vt 1.0 0.0
vt 0.0 1.0
vt 0.0 0.0
vt 1.0 0.0
vt 0.0 1.0
vt 0.0 0.0
vt 1.0 0.0
vt 0.0 1.0
vt 0.0 0.0
vt 1.0 0.0
vt 0.0 1.0
vt 0.0 0.0
vt 1.0 0.0
vt 0.0 1.0
vt 0.0 0.0
vt 1.0 0.0
vt 0.0 1.0
vt 0.0 0.0
vt 1.0 0.0
vt 0.0 1.0
vt 0.0 0.0
vt 1.0 0.0
vt 0.0 1.0
vt 0.0 0.0
vt 1.0 0.0
vt 0.0 1.0
vt 0.0 0.0
vt 1.0 0.0
vt 0.0 1.0
vt 0.0 0.0
vt 1.0 0.0
vt 0.0 1.0
vt 0.0 0.0
vt 1.0 0.0
vt 0.0 1.0
vt 0.0 0.0
vt 1.0 0.0
vt 0.0 1.0
vt 0.0 0.0
vt 1.0 0.0
vt 0.0 1.0
vt 0.0 0.0
vt 1.0 0.0
vt 0.0 1.0
vt 0.0 0.0
vt 1.0 0.0
vt 0.0 1.0
vt 0.0 0.0
vt 1.0 0.0
vt 0.0 1.0
vt 0.0 0.0
vt 1.0 0.0
vt 0.0 1.0
vt 0.0 0.0
vt 1.0 0.0
vt 0.0 1.0
vt 0.0 0.0
vt 1.0 0.0
vt 0.0 1.0
vt 0.0 0.0
vt 1.0 0.0
vt 0.0 1.0
vt 0.0 0.0
vt 1.0 0.0
vt 0.0 1.0
vt 0.0 0.0
vt 1.0 0.0
vt 0.0 1.0
vt 0.0 0.0
vt 1.0 0.0
vt 0.0 1.0
vt 0.0 0.0
vt 1.0 0.0
vt 0.0 1.0
vt 0.0 0.0
vt 1.0 0.0
vt 0.0 1.0
vt 0.0 0.0
vt 1.0 0.0
vt 0.0 1.0
vt 0.0 0.0
vt 1.0 0.0
vt 0.0 1.0
vt 0.0 0.0
vt 1.0 0.0
vt 0.0 1.0
vt 0.0 0.0
vt 1.0 0.0
vt 0.0 1.0
vt 0.0 0.0
vt 1.0 0.0
vt 0.0 1.0
vt 0.0 0.0
vt 1.0 0.0
vt 0.0 1.0
vt 0.0 0.0
vt 1.0 0.0
vt 0.0 1.0
vt 0.0 0.0
vt 1.0 0.0
vt 0.0 1.0
vt 0.0 0.0
vt 1.0 0.0
vt 0.0 1.0
vt 0.0 0.0
vt 1.0 0.0
vt 0.0 1.0
vt 0.0 0.0
vt 1.0 0.0
vt 0.0 1.0
vt 0.0 0.0
vt 1.0 0.0
vt 0.0 1.0
vt 0.0 0.0
vt 1.0 0.0
vt 0.0 1.0
vt 0.0 0.0
vt 1.0 0.0
vt 0.0 1.0
vt 0.0 0.0
vt 1.0 0.0
vt 0.0 1.0
vt 0.0 0.0
vt 1.0 0.0
vt 0.0 1.0
vt 0.0 0.0
vt 1.0 0.0
vt 0.0 1.0
vt 0.0 0.0
vt 1.0 0.0
vt 0.0 1.0
vt 0.0 0.0
vt 1.0 0.0
vt 0.0 1.0
vt 0.0 0.0
vt 1.0 0.0
vt 0.0 1.0
vt 0.0 0.0
vt 1.0 0.0
vt 0.0 1.0
vt 0.0 0.0
vt 1.0 0.0
vt 0.0 1.0
vt 0.0 0.0
vt 1.0 0.0
vt 0.0 1.0
vt 0.0 0.0
vt 1.0 0.0
vt 0.0 1.0
vt 0.0 0.0
vt 1.0 0.0
vt 0.0 1.0
vt 0.0 0.0
vt 1.0 0.0
vt 0.0 1.0
vt 0.0 0.0
vt 1.0 0.0
vt 0.0 1.0
vt 0.0 0.0
vt 1.0 0.0
vt 0.0 1.0
vt 0.0 0.0
vt 1.0 0.0
vt 0.0 1.0
vt 0.0 0.0
vt 1.0 0.0
vt 0.0 1.0
vt 0.0 0.0
vt 1.0 0.0
vt 0.0 1.0
vt 0.0 0.0
vt 1.0 0.0
vt 0.0 1.0
vt 0.0 0.0
vt 1.0 0.0
vt 0.0 1.0
vt 0.0 0.0
vt 1.0 0.0
vt 0.0 1.0
vt 0.0 0.0
vt 1.0 0.0
vt 0.0 1.0
vt 0.0 0.0
vt 1.0 0.0
vt 0.0 1.0
vt 0.0 0.0
vt 1.0 0.0
vt 0.0 1.0
vt 0.0 0.0
vt 1.0 0.0
vt 0.0 1.0
vt 0.0 0.0
vt 1.0 0.0
vt 0.0 1.0
vt 0.0 0.0
vt 1.0 0.0
vt 0.0 1.0
vt 0.0 0.0
vt 1.0 0.0
vt 0.0 1.0
vt 0.0 0.0
vt 1.0 0.0
vt 0.0 1.0
vt 0.0 0.0
vt 1.0 0.0
vt 0.0 1.0
vt 0.0 0.0
vt 1.0 0.0
vt 0.0 1.0
vt 0.0 0.0
vt 1.0 0.0
vt 0.0 1.0
vt 0.0 0.0
vt 1.0 0.0
vt 0.0 1.0
vt 0.0 0.0
vt 1.0 0.0
vt 0.0 1.0
vt 0.0 0.0
vt 1.0 0.0
vt 0.0 1.0
vt 0.0 0.0
vt 1.0 0.0
vt 0.0 1.0
vt 0.0 0.0
vt 1.0 0.0
vt 0.0 1.0
vt 0.0 0.0
vt 1.0 0.0
vt 0.0 1.0
vt 0.0 0.0
vt 1.0 0.0
vt 0.0 1.0
vt 0.0 0.0
vt 1.0 0.0
vt 0.0 1.0
vt 0.0 0.0
vt 1.0 0.0
vt 0.0 1.0
vt 0.0 0.0
vt 1.0 0.0
vt 0.0 1.0
vt 0.0 0.0
vt 1.0 0.0
vt 0.0 1.0
vt 0.0 0.0
vt 1.0 0.0
vt 0.0 1.0
vt 0.0 0.0
vt 1.0 0.0
vt 0.0 1.0
vt 0.0 0.0
vt 1.0 0.0
vt 0.0 1.0
vt 0.0 0.0
vt 1.0 0.0
vt 0.0 1.0
vt 0.0 0.0
vt 1.0 0.0
vt 0.0 1.0
vt 0.0 0.0
vt 1.0 0.0
vt 0.0 1.0
vt 0.0 0.0
vt 1.0 0.0
vt 0.0 1.0
vt 0.0 0.0
vt 1.0 0.0
vt 0.0 1.0
vt 0.0 0.0
vt 1.0 0.0
vt 0.0 1.0
vt 0.0 0.0
vt 1.0 0.0
vt 0.0 1.0
vt 0.0 0.0
vt 1.0 0.0
vt 0.0 1.0
vt 0.0 0.0
vt 1.0 0.0
vt 0.0 1.0
vt 0.0 0.0
vt 1.0 0.0
vt 0.0 1.0
vt 0.0 0.0
vt 1.0 0.0
vt 0.0 1.0
vt 0.0 0.0
vt 1.0 0.0
vt 0.0 1.0
vt 0.0 0.0
vt 1.0 0.0
vt 0.0 1.0
vt 0.0 0.0
vt 1.0 0.0
vt 0.0 1.0
vt 0.0 0.0
vt 1.0 0.0
vt 0.0 1.0
vt 0.0 0.0
vt 1.0 0.0
vt 0.0 1.0
vt 0.0 0.0
vt 1.0 0.0
vt 0.0 1.0
vt 0.0 0.0
vt 1.0 0.0
vt 0.0 1.0
vt 0.0 0.0
vt 1.0 0.0
vt 0.0 1.0
vt 0.0 0.0
vt 1.0 0.0
vt 0.0 1.0
vt 0.0 0.0
vt 1.0 0.0
vt 0.0 1.0
vt 0.0 0.0
vt 1.0 0.0
vt 0.0 1.0
vt 0.0 0.0
vt 1.0 0.0
vt 0.0 1.0
vt 0.0 0.0
vt 1.0 0.0
vt 0.0 1.0
vt 0.0 0.0
vt 1.0 0.0
vt 0.0 1.0
vt 0.0 0.0
vt 1.0 0.0
vt 0.0 1.0
vt 0.0 0.0
vt 1.0 0.0
vt 0.0 1.0
vt 0.0 0.0
vt 1.0 0.0
vt 0.0 1.0
vt 0.0 0.0
vt 1.0 0.0
vt 0.0 1.0
vt 0.0 0.0
vt 1.0 0.0
vt 0.0 1.0
vt 0.0 0.0
vt 1.0 0.0
vt 0.0 1.0
vt 0.0 0.0
vt 1.0 0.0
vt 0.0 1.0
vt 0.0 0.0
vt 1.0 0.0
vt 0.0 1.0
vt 0.0 0.0
vt 1.0 0.0
vt 0.0 1.0
vt 0.0 0.0
vt 1.0 0.0
vt 0.0 1.0
vt 0.0 0.0
vt 1.0 0.0
vt 0.0 1.0
vt 0.0 0.0
vt 1.0 0.0
vt 0.0 1.0
vt 0.0 0.0
vt 1.0 0.0
vt 0.0 1.0
vt 0.0 0.0
vt 1.0 0.0
vt 0.0 1.0
vt 0.0 0.0
vt 1.0 0.0
vt 0.0 1.0
vt 0.0 0.0
vt 1.0 0.0
vt 0.0 1.0
vt 0.0 0.0
vt 1.0 0.0
vt 0.0 1.0
vt 0.0 0.0
vt 1.0 0.0
vt 0.0 1.0
vt 0.0 0.0
vt 1.0 0.0
vt 0.0 1.0
vt 0.0 0.0
vt 1.0 0.0
vt 0.0 1.0
vt 0.0 0.0
vt 1.0 0.0
vt 0.0 1.0
vt 0.0 0.0
vt 1.0 0.0
vt 0.0 1.0
vt 0.0 0.0
vt 1.0 0.0
vt 0.0 1.0
vt 0.0 0.0
vt 1.0 0.0
vt 0.0 1.0
vt 0.0 0.0
vt 1.0 0.0
vt 0.0 1.0
vt 0.0 0.0
vt 1.0 0.0
vt 0.0 1.0
vt 0.0 0.0
vt 1.0 0.0
vt 0.0 1.0
vt 0.0 0.0
vt 1.0 0.0
vt 0.0 1.0
vt 0.0 0.0
vt 1.0 0.0
vt 0.0 1.0
vt 0.0 0.0
vt 1.0 0.0
vt 0.0 1.0
vt 0.0 0.0
vt 1.0 0.0
vt 0.0 1.0
vt 0.0 0.0
vt 1.0 0.0
vt 0.0 1.0
vt 0.0 0.0
vt 1.0 0.0
vt 0.0 1.0
vt 0.0 0.0
vt 1.0 0.0
vt 0.0 1.0
vt 0.0 0.0
vt 1.0 0.0
vt 0.0 1.0
vt 0.0 0.0
vt 1.0 0.0
vt 0.0 1.0
vt 0.0 0.0
vt 1.0 0.0
vt 0.0 1.0
vt 0.0 0.0
vt 1.0 0.0
vt 0.0 1.0
vt 0.0 0.0
vt 1.0 0.0
vt 0.0 1.0
vt 0.0 0.0
vt 1.0 0.0
vt 0.0 1.0
vt 0.0 0.0
vt 1.0 0.0
vt 0.0 1.0
vt 0.0 0.0
vt 1.0 0.0
vt 0.0 1.0
vt 0.0 0.0
vt 1.0 0.0
vt 0.0 1.0
vt 0.0 0.0
vt 1.0 0.0
vt 0.0 1.0
vt 0.0 0.0
vt 1.0 0.0
vt 0.0 1.0
vt 0.0 0.0
vt 1.0 0.0
vt 0.0 1.0
vt 0.0 0.0
vt 1.0 0.0
vt 0.0 1.0
vt 0.0 0.0
vt 1.0 0.0
vt 0.0 1.0
vt 0.0 0.0
vt 1.0 0.0
vt 0.0 1.0
vt 0.0 0.0
vt 1.0 0.0
vt 0.0 1.0
vt 0.0 0.0
vt 1.0 0.0
vt 0.0 1.0
vt 0.0 0.0
vt 1.0 0.0
vt 0.0 1.0
vt 0.0 0.0
vt 1.0 0.0
vt 0.0 1.0
vt 0.0 0.0
vt 1.0 0.0
vt 0.0 1.0
vt 0.0 0.0
vt 1.0 0.0
vt 0.0 1.0
vt 0.0 0.0
vt 1.0 0.0
vt 0.0 1.0
vt 0.0 0.0
vt 1.0 0.0
vt 0.0 1.0
vt 0.0 0.0
vt 1.0 0.0
vt 0.0 1.0
vt 0.0 0.0
vt 1.0 0.0
vt 0.0 1.0
vt 0.0 0.0
vt 1.0 0.0
vt 0.0 1.0
vt 0.0 0.0
vt 1.0 0.0
vt 0.0 1.0
vt 0.0 0.0
vt 1.0 0.0
vt 0.0 1.0
vt 0.0 0.0
vt 1.0 0.0
vt 0.0 1.0
vt 0.0 0.0
vt 1.0 0.0
vt 0.0 1.0
vt 0.0 0.0
vt 1.0 0.0
vt 0.0 1.0
vt 0.0 0.0
vt 1.0 0.0
vt 0.0 1.0
vt 0.0 0.0
vt 1.0 0.0
vt 0.0 1.0
vt 0.0 0.0
vt 1.0 0.0
vt 0.0 1.0
vt 0.0 0.0
vt 1.0 0.0
vt 0.0 1.0
vt 0.0 0.0
vt 1.0 0.0
vt 0.0 1.0
vt 0.0 0.0
vt 1.0 0.0
vt 0.0 1.0
vt 0.0 0.0
vt 1.0 0.0
vt 0.0 1.0
vt 0.0 0.0
vt 1.0 0.0
vt 0.0 1.0
vt 0.0 0.0
vt 1.0 0.0
vt 0.0 1.0
vt 0.0 0.0
vt 1.0 0.0
vt 0.0 1.0
vt 0.0 0.0
vt 1.0 0.0
vt 0.0 1.0
vt 0.0 0.0
vt 1.0 0.0
vt 0.0 1.0
vt 0.0 0.0
vt 1.0 0.0
vt 0.0 1.0
vt 0.0 0.0
vt 1.0 0.0
vt 0.0 1.0
vt 0.0 0.0
vt 1.0 0.0
vt 0.0 1.0
vt 0.0 0.0
vt 1.0 0.0
vt 0.0 1.0
vt 0.0 0.0
vt 1.0 0.0
vt 0.0 1.0
vt 0.0 0.0
vt 1.0 0.0
vt 0.0 1.0
vt 0.0 0.0
vt 1.0 0.0
vt 0.0 1.0
vt 0.0 0.0
vt 1.0 0.0
vt 0.0 1.0
vt 0.0 0.0
vt 1.0 0.0
vt 0.0 1.0
vt 0.0 0.0
vt 1.0 0.0
vt 0.0 1.0
vt 0.0 0.0
vt 1.0 0.0
vt 0.0 1.0
vt 0.0 0.0
vt 1.0 0.0
vt 0.0 1.0
vt 0.0 0.0
vt 1.0 0.0
vt 0.0 1.0
vt 0.0 0.0
vt 1.0 0.0
vt 0.0 1.0
vt 0.0 0.0
vt 1.0 0.0
vt 0.0 1.0
vt 0.0 0.0
vt 1.0 0.0
vt 0.0 1.0
vt 0.0 0.0
vt 1.0 0.0
vt 0.0 1.0
vt 0.0 0.0
vt 1.0 0.0
vt 0.0 1.0
vt 0.0 0.0
vt 1.0 0.0
vt 0.0 1.0
vt 0.0 0.0
vt 1.0 0.0
vt 0.0 1.0
vt 0.0 0.0
vt 1.0 0.0
vt 0.0 1.0
vt 0.0 0.0
vt 1.0 0.0
vt 0.0 1.0
vt 0.0 0.0
vt 1.0 0.0
vt 0.0 1.0
vt 0.0 0.0
vt 1.0 0.0
vt 0.0 1.0
vt 0.0 0.0
vt 1.0 0.0
vt 0.0 1.0
vt 0.0 0.0
vt 1.0 0.0
vt 0.0 1.0
vt 0.0 0.0
vt 1.0 0.0
vt 0.0 1.0
vt 0.0 0.0
vt 1.0 0.0
vt 0.0 1.0
vt 0.0 0.0
vt 1.0 0.0
vt 0.0 1.0
vt 0.0 0.0
vt 1.0 0.0
vt 0.0 1.0
vt 0.0 0.0
vt 1.0 0.0
vt 0.0 1.0
vt 0.0 0.0
vt 1.0 0.0
vt 0.0 1.0
vt 0.0 0.0
vt 1.0 0.0
vt 0.0 1.0
vt 0.0 0.0
vt 1.0 0.0
vt 0.0 1.0
vt 0.0 0.0
vt 1.0 0.0
vt 0.0 1.0
vt 0.0 0.0
vt 1.0 0.0
vt 0.0 1.0
vt 0.0 0.0
vt 1.0 0.0
vt 0.0 1.0
vt 0.0 0.0
vt 1.0 0.0
vt 0.0 1.0
vt 0.0 0.0
vt 1.0 0.0
vt 0.0 1.0
vt 0.0 0.0
vt 1.0 0.0
vt 0.0 1.0
vt 0.0 0.0
vt 1.0 0.0
vt 0.0 1.0
vt 0.0 0.0
vt 1.0 0.0
vt 0.0 1.0
vt 0.0 0.0
vt 1.0 0.0
vt 0.0 1.0
vt 0.0 0.0
vt 1.0 0.0
vt 0.0 1.0
vt 0.0 0.0
vt 1.0 0.0
vt 0.0 1.0
vt 0.0 0.0
vt 1.0 0.0
vt 0.0 1.0
vt 0.0 0.0
vt 1.0 0.0
vt 0.0 1.0
vt 0.0 0.0
vt 1.0 0.0
vt 0.0 1.0
vt 0.0 0.0
vt 1.0 0.0
vt 0.0 1.0
vt 0.0 0.0
vt 1.0 0.0
vt 0.0 1.0
vt 0.0 0.0
vt 1.0 0.0
vt 0.0 1.0
vt 0.0 0.0
vt 1.0 0.0
vt 0.0 1.0
vt 0.0 0.0
vt 1.0 0.0
vt 0.0 1.0
vt 0.0 0.0
vt 1.0 0.0
vt 0.0 1.0
vt 0.0 0.0
vt 1.0 0.0
vt 0.0 1.0
vt 0.0 0.0
vt 1.0 0.0
vt 0.0 1.0
vt 0.0 0.0
vt 1.0 0.0
vt 0.0 1.0
vt 0.0 0.0
vt 1.0 0.0
vt 0.0 1.0
vt 0.0 0.0
vt 1.0 0.0
vt 0.0 1.0
vt 0.0 0.0
vt 1.0 0.0
vt 0.0 1.0
vt 0.0 0.0
vt 1.0 0.0
vt 0.0 1.0
vt 0.0 0.0
vt 1.0 0.0
vt 0.0 1.0
vt 0.0 0.0
vt 1.0 0.0
vt 0.0 1.0
vt 0.0 0.0
vt 1.0 0.0
vt 0.0 1.0
vt 0.0 0.0
vt 1.0 0.0
vt 0.0 1.0
vt 0.0 0.0
vt 1.0 0.0
vt 0.0 1.0
vt 0.0 0.0
vt 1.0 0.0
vt 0.0 1.0
vt 0.0 0.0
vt 1.0 0.0
vt 0.0 1.0
vt 0.0 0.0
vt 1.0 0.0
vt 0.0 1.0
vt 0.0 0.0
vt 1.0 0.0
vt 0.0 1.0
vt 0.0 0.0
vt 1.0 0.0
vt 0.0 1.0
vt 0.0 0.0
vt 1.0 0.0
vt 0.0 1.0
vt 0.0 0.0
vt 1.0 0.0
vt 0.0 1.0
vt 0.0 0.0
vt 1.0 0.0
vt 0.0 1.0
vt 0.0 0.0
vt 1.0 0.0
vt 0.0 1.0
vt 0.0 0.0
vt 1.0 0.0
vt 0.0 1.0
vt 0.0 0.0
vt 1.0 0.0
vt 0.0 1.0
vt 0.0 0.0
vt 1.0 0.0
vt 0.0 1.0
vt 0.0 0.0
vt 1.0 0.0
vt 0.0 1.0
vt 0.0 0.0
vt 1.0 0.0
vt 0.0 1.0
vt 0.0 0.0
vt 1.0 0.0
vt 0.0 1.0
vt 0.0 0.0
vt 1.0 0.0
vt 0.0 1.0
vt 0.0 0.0
vt 1.0 0.0
vt 0.0 1.0
vt 0.0 0.0
vt 1.0 0.0
vt 0.0 1.0
vt 0.0 0.0
vt 1.0 0.0
vt 0.0 1.0
vt 0.0 0.0
vt 1.0 0.0
vt 0.0 1.0
vt 0.0 0.0
vt 1.0 0.0
vt 0.0 1.0
vt 0.0 0.0
vt 1.0 0.0
vt 0.0 1.0
vt 0.0 0.0
vt 1.0 0.0
vt 0.0 1.0
vt 0.0 0.0
vt 1.0 0.0
vt 0.0 1.0
vt 0.0 0.0
vt 1.0 0.0
vt 0.0 1.0
vt 0.0 0.0
vt 1.0 0.0
vt 0.0 1.0
vt 0.0 0.0
vt 1.0 0.0
vt 0.0 1.0
vt 0.0 0.0
vt 1.0 0.0
vt 0.0 1.0
vt 0.0 0.0
vt 1.0 0.0
vt 0.0 1.0
vt 0.0 0.0
vt 1.0 0.0
vt 0.0 1.0
vt 0.0 0.0
vt 1.0 0.0
vt 0.0 1.0
vt 0.0 0.0
vt 1.0 0.0
vt 0.0 1.0
vt 0.0 0.0
vt 1.0 0.0
vt 0.0 1.0
vt 0.0 0.0
vt 1.0 0.0
vt 0.0 1.0
vt 0.0 0.0
vt 1.0 0.0
vt 0.0 1.0
vt 0.0 0.0
vt 1.0 0.0
vt 0.0 1.0
vt 0.0 0.0
vt 1.0 0.0
vt 0.0 1.0
vt 0.0 0.0
vt 1.0 0.0
vt 0.0 1.0
vt 0.0 0.0
vt 1.0 0.0
vt 0.0 1.0
vt 0.0 0.0
vt 1.0 0.0
vt 0.0 1.0
vt 0.0 0.0
vt 1.0 0.0
vt 0.0 1.0
vt 0.0 0.0
vt 1.0 0.0

# 996 Vertex Normals
vn 0.0 -1.0 -0.0
vn 0.16667 -0.978549 -0.121092
vn 0.16667 -0.978549 0.121093
vn 0.0 -1.0 -0.0
vn 0.16667 -0.978549 0.121093
vn -0.063662 -0.978549 0.195932
vn 0.0 -1.0 -0.0
vn -0.063662 -0.978549 0.195932
vn -0.206015 -0.978549 0.0
vn 0.0 -1.0 -0.0
vn -0.206015 -0.978549 0.0
vn -0.063662 -0.978549 -0.195932
vn 0.0 -1.0 -0.0
vn -0.063662 -0.978549 -0.195932
vn 0.16667 -0.978549 -0.121092
vn -0.257233 -0.554142 -0.79168
vn -0.142337 -0.459317 -0.876794
vn -0.023915 -0.609704 -0.792268
vn -0.832422 -0.554142 0.0
vn -0.877865 -0.459317 -0.135574
vn -0.760882 -0.609704 -0.22208
vn -0.257233 -0.554142 0.791681
vn -0.400214 -0.459317 0.793005
vn -0.446336 -0.609704 0.655015
vn 0.673444 -0.554142 0.489286
vn 0.630519 -0.459317 0.625678
vn 0.485031 -0.609704 0.626902
vn 0.673444 -0.554142 -0.489285
vn 0.789896 -0.459317 -0.406315
vn 0.746102 -0.609704 -0.267568
vn 0.673444 -0.554142 -0.489285
vn 0.746102 -0.609704 -0.267568
vn 0.533051 -0.752242 -0.387284
vn 0.673444 -0.554142 0.489286
vn 0.533051 -0.752242 0.387284
vn 0.746102 -0.609704 0.267569
vn 0.355046 -0.898555 -0.257956
vn 0.57361 -0.808189 -0.133424
vn 0.375199 -0.926944 0.0
vn 0.673444 -0.554142 0.489286
vn 0.485031 -0.609704 0.626902
vn 0.533051 -0.752242 0.387284
vn -0.257233 -0.554142 0.791681
vn -0.203607 -0.752242 0.626639
vn -0.023915 -0.609704 0.792268
vn 0.355045 -0.898555 0.257956
vn 0.304149 -0.808189 0.504305
vn 0.115943 -0.926944 0.356836
vn -0.257233 -0.554142 0.791681
vn -0.446336 -0.609704 0.655015
vn -0.203607 -0.752242 0.626639
vn -0.832422 -0.554142 0.0
vn -0.658887 -0.752242 0.0
vn -0.760882 -0.609704 0.22208
vn -0.135615 -0.898555 0.417381
vn -0.385635 -0.808189 0.445102
vn -0.303543 -0.926944 0.220537
vn -0.832422 -0.554142 0.0
vn -0.760882 -0.609704 -0.22208
vn -0.658887 -0.752242 0.0
vn -0.257233 -0.554142 -0.79168
vn -0.203607 -0.752242 -0.626639
vn -0.446336 -0.609704 -0.655015
vn -0.43886 -0.898555 0.0
vn -0.542485 -0.808189 -0.229217
vn -0.303543 -0.926944 -0.220537
vn -0.257233 -0.554142 -0.79168
vn -0.023915 -0.609704 -0.792268
vn -0.203607 -0.752242 -0.626639
vn 0.673444 -0.554142 -0.489285
vn 0.533051 -0.752242 -0.387284
vn 0.485031 -0.609704 -0.626901
vn -0.135615 -0.898555 -0.417381
vn 0.050361 -0.808189 -0.586765
vn 0.115943 -0.926944 -0.356836
vn 0.673444 -0.554142 -0.489285
vn 0.63052 -0.459317 -0.625678
vn 0.789896 -0.459317 -0.406315
vn -0.257233 -0.554142 -0.79168
vn -0.400214 -0.459317 -0.793005
vn -0.142337 -0.459317 -0.876794
vn -0.832422 -0.554142 0.0
vn -0.877865 -0.459317 0.135574
vn -0.877865 -0.459317 -0.135574
vn -0.257233 -0.554142 0.791681
vn -0.142337 -0.459317 0.876794
vn -0.400214 -0.459317 0.793005
vn 0.673444 -0.554142 0.489286
vn 0.789896 -0.459317 0.406315
vn 0.630519 -0.459317 0.625678
vn 0.673444 -0.554142 -0.489285
vn 0.485031 -0.609704 -0.626901
vn 0.63052 -0.459317 -0.625678
vn -0.257233 -0.554142 -0.79168
vn -0.446336 -0.609704 -0.655015
vn -0.400214 -0.459317 -0.793005
vn -0.832422 -0.554142 0.0
vn -0.760882 -0.609704 0.22208
vn -0.877865 -0.459317 0.135574
vn -0.257233 -0.554142 0.791681
vn -0.023915 -0.609704 0.792268
vn -0.142337 -0.459317 0.876794
vn 0.673444 -0.554142 0.489286
vn 0.746102 -0.609704 0.267569
vn 0.789896 -0.459317 0.406315
vn 0.355046 -0.898555 -0.257956
vn 0.375199 -0.926944 0.0
vn 0.16667 -0.978549 -0.121092
vn 0.355045 -0.898555 0.257956
vn 0.16667 -0.978549 0.121093
vn 0.375199 -0.926944 0.0
vn 0.16667 -0.978549 -0.121092
vn 0.375199 -0.926944 0.0
vn 0.16667 -0.978549 0.121093
vn 0.355045 -0.898555 0.257956
vn 0.115943 -0.926944 0.356836
vn 0.16667 -0.978549 0.121093
vn -0.135615 -0.898555 0.417381
vn -0.063662 -0.978549 0.195932
vn 0.115943 -0.926944 0.356836
vn 0.16667 -0.978549 0.121093
vn 0.115943 -0.926944 0.356836
vn -0.063662 -0.978549 0.195932
vn -0.135615 -0.898555 0.417381
vn -0.303543 -0.926944 0.220537
vn -0.063662 -0.978549 0.195932
vn -0.43886 -0.898555 0.0
vn -0.206015 -0.978549 0.0
vn -0.303543 -0.926944 0.220537
vn -0.063662 -0.978549 0.195932
vn -0.303543 -0.926944 0.220537
vn -0.206015 -0.978549 0.0
vn -0.43886 -0.898555 0.0
vn -0.303543 -0.926944 -0.220537
vn -0.206015 -0.978549 0.0
vn -0.135615 -0.898555 -0.417381
vn -0.063662 -0.978549 -0.195932
vn -0.303543 -0.926944 -0.220537
vn -0.206015 -0.978549 0.0
vn -0.303543 -0.926944 -0.220537
vn -0.063662 -0.978549 -0.195932
vn -0.135615 -0.898555 -0.417381
vn 0.115943 -0.926944 -0.356836
vn -0.063662 -0.978549 -0.195932
vn 0.355046 -0.898555 -0.257956
vn 0.16667 -0.978549 -0.121092
vn 0.115943 -0.926944 -0.356836
vn -0.063662 -0.978549 -0.195932
vn 0.115943 -0.926944 -0.356836
vn 0.16667 -0.978549 -0.121092
vn 0.239342 -0.632543 -0.736617
vn -0.023915 -0.609704 -0.792268
vn 0.127664 -0.496802 -0.858423
vn -0.142337 -0.459317 -0.876794
vn 0.127664 -0.496802 -0.858423
vn -0.023915 -0.609704 -0.792268
vn -0.626604 -0.632543 -0.455255
vn -0.760882 -0.609704 -0.22208
vn -0.776958 -0.496802 -0.386682
vn -0.877865 -0.459317 -0.135574
vn -0.776958 -0.496802 -0.386682
vn -0.760882 -0.609704 -0.22208
vn -0.626604 -0.632543 0.455254
vn -0.446336 -0.609704 0.655015
vn -0.60785 -0.496802 0.61944
vn -0.400214 -0.459317 0.793005
vn -0.60785 -0.496802 0.61944
vn -0.446336 -0.609704 0.655015
vn 0.239341 -0.632543 0.736617
vn 0.485031 -0.609704 0.626902
vn 0.401286 -0.496802 0.769517
vn 0.630519 -0.459317 0.625678
vn 0.401286 -0.496802 0.769517
vn 0.485031 -0.609704 0.626902
vn 0.774525 -0.632543 0.0
vn 0.746102 -0.609704 -0.267568
vn 0.855859 -0.496802 -0.143852
vn 0.789896 -0.459317 -0.406315
vn 0.855859 -0.496802 -0.143852
vn 0.746102 -0.609704 -0.267568
vn 0.774525 -0.632543 0.0
vn 0.57361 -0.808189 -0.133424
vn 0.746102 -0.609704 -0.267568
vn 0.355046 -0.898555 -0.257956
vn 0.533051 -0.752242 -0.387284
vn 0.57361 -0.808189 -0.133424
vn 0.746102 -0.609704 -0.267568
vn 0.57361 -0.808189 -0.133424
vn 0.533051 -0.752242 -0.387284
vn 0.355045 -0.898555 0.257956
vn 0.57361 -0.808189 0.133424
vn 0.533051 -0.752242 0.387284
vn 0.774525 -0.632543 0.0
vn 0.746102 -0.609704 0.267569
vn 0.57361 -0.808189 0.133424
vn 0.533051 -0.752242 0.387284
vn 0.57361 -0.808189 0.133424
vn 0.746102 -0.609704 0.267569
vn 0.774525 -0.632543 0.0
vn 0.57361 -0.808189 0.133424
vn 0.57361 -0.808189 -0.133424
vn 0.355045 -0.898555 0.257956
vn 0.375199 -0.926944 0.0
vn 0.57361 -0.808189 0.133424
vn 0.57361 -0.808189 -0.133424
vn 0.57361 -0.808189 0.133424
vn 0.375199 -0.926944 0.0
vn 0.239341 -0.632543 0.736617
vn 0.304149 -0.808189 0.504305
vn 0.485031 -0.609704 0.626902
vn 0.355045 -0.898555 0.257956
vn 0.533051 -0.752242 0.387284
vn 0.304149 -0.808189 0.504305
vn 0.485031 -0.609704 0.626902
vn 0.304149 -0.808189 0.504305
vn 0.533051 -0.752242 0.387284
vn -0.135615 -0.898555 0.417381
vn 0.050361 -0.808189 0.586766
vn -0.203607 -0.752242 0.626639
vn 0.239341 -0.632543 0.736617
vn -0.023915 -0.609704 0.792268
vn 0.050361 -0.808189 0.586766
vn -0.203607 -0.752242 0.626639
vn 0.050361 -0.808189 0.586766
vn -0.023915 -0.609704 0.792268
vn 0.239341 -0.632543 0.736617
vn 0.050361 -0.808189 0.586766
vn 0.304149 -0.808189 0.504305
vn -0.135615 -0.898555 0.417381
vn 0.115943 -0.926944 0.356836
vn 0.050361 -0.808189 0.586766
vn 0.304149 -0.808189 0.504305
vn 0.050361 -0.808189 0.586766
vn 0.115943 -0.926944 0.356836
vn -0.626604 -0.632543 0.455254
vn -0.385635 -0.808189 0.445102
vn -0.446336 -0.609704 0.655015
vn -0.135615 -0.898555 0.417381
vn -0.203607 -0.752242 0.626639
vn -0.385635 -0.808189 0.445102
vn -0.446336 -0.609704 0.655015
vn -0.385635 -0.808189 0.445102
vn -0.203607 -0.752242 0.626639
vn -0.43886 -0.898555 0.0
vn -0.542485 -0.808189 0.229217
vn -0.658887 -0.752242 0.0
vn -0.626604 -0.632543 0.455254
vn -0.760882 -0.609704 0.22208
vn -0.542485 -0.808189 0.229217
vn -0.658887 -0.752242 0.0
vn -0.542485 -0.808189 0.229217
vn -0.760882 -0.609704 0.22208
vn -0.626604 -0.632543 0.455254
vn -0.542485 -0.808189 0.229217
vn -0.385635 -0.808189 0.445102
vn -0.43886 -0.898555 0.0
vn -0.303543 -0.926944 0.220537
vn -0.542485 -0.808189 0.229217
vn -0.385635 -0.808189 0.445102
vn -0.542485 -0.808189 0.229217
vn -0.303543 -0.926944 0.220537
vn -0.626604 -0.632543 -0.455255
vn -0.542485 -0.808189 -0.229217
vn -0.760882 -0.609704 -0.22208
vn -0.43886 -0.898555 0.0
vn -0.658887 -0.752242 0.0
vn -0.542485 -0.808189 -0.229217
vn -0.760882 -0.609704 -0.22208
vn -0.542485 -0.808189 -0.229217
vn -0.658887 -0.752242 0.0
vn -0.135615 -0.898555 -0.417381
vn -0.385635 -0.808189 -0.445102
vn -0.203607 -0.752242 -0.626639
vn -0.626604 -0.632543 -0.455255
vn -0.446336 -0.609704 -0.655015
vn -0.385635 -0.808189 -0.445102
vn -0.203607 -0.752242 -0.626639
vn -0.385635 -0.808189 -0.445102
vn -0.446336 -0.609704 -0.655015
vn -0.626604 -0.632543 -0.455255
vn -0.385635 -0.808189 -0.445102
vn -0.542485 -0.808189 -0.229217
vn -0.135615 -0.898555 -0.417381
vn -0.303543 -0.926944 -0.220537
vn -0.385635 -0.808189 -0.445102
vn -0.542485 -0.808189 -0.229217
vn -0.385635 -0.808189 -0.445102
vn -0.303543 -0.926944 -0.220537
vn 0.239342 -0.632543 -0.736617
vn 0.050361 -0.808189 -0.586765
vn -0.023915 -0.609704 -0.792268
vn -0.135615 -0.898555 -0.417381
vn -0.203607 -0.752242 -0.626639
vn 0.050361 -0.808189 -0.586765
vn -0.023915 -0.609704 -0.792268
vn 0.050361 -0.808189 -0.586765
vn -0.203607 -0.752242 -0.626639
vn 0.355046 -0.898555 -0.257956
vn 0.304149 -0.808189 -0.504305
vn 0.533051 -0.752242 -0.387284
vn 0.239342 -0.632543 -0.736617
vn 0.485031 -0.609704 -0.626901
vn 0.304149 -0.808189 -0.504305
vn 0.533051 -0.752242 -0.387284
vn 0.304149 -0.808189 -0.504305
vn 0.485031 -0.609704 -0.626901
vn 0.239342 -0.632543 -0.736617
vn 0.304149 -0.808189 -0.504305
vn 0.050361 -0.808189 -0.586765
vn 0.355046 -0.898555 -0.257956
vn 0.115943 -0.926944 -0.356836
vn 0.304149 -0.808189 -0.504305
vn 0.050361 -0.808189 -0.586765
vn 0.304149 -0.808189 -0.504305
vn 0.115943 -0.926944 -0.356836
vn 0.239342 -0.632543 -0.736617
vn 0.401287 -0.496802 -0.769517
vn 0.485031 -0.609704 -0.626901
vn 0.485031 -0.609704 -0.626901
vn 0.401287 -0.496802 -0.769517
vn 0.63052 -0.459317 -0.625678
vn 0.239342 -0.632543 -0.736617
vn 0.127664 -0.496802 -0.858423
vn 0.401287 -0.496802 -0.769517
vn -0.626604 -0.632543 -0.455255
vn -0.60785 -0.496802 -0.61944
vn -0.446336 -0.609704 -0.655015
vn -0.446336 -0.609704 -0.655015
vn -0.60785 -0.496802 -0.61944
vn -0.400214 -0.459317 -0.793005
vn -0.626604 -0.632543 -0.455255
vn -0.776958 -0.496802 -0.386682
vn -0.60785 -0.496802 -0.61944
vn -0.626604 -0.632543 0.455254
vn -0.776959 -0.496802 0.386682
vn -0.760882 -0.609704 0.22208
vn -0.760882 -0.609704 0.22208
vn -0.776959 -0.496802 0.386682
vn -0.877865 -0.459317 0.135574
vn -0.626604 -0.632543 0.455254
vn -0.60785 -0.496802 0.61944
vn -0.776959 -0.496802 0.386682
vn 0.239341 -0.632543 0.736617
vn 0.127663 -0.496802 0.858423
vn -0.023915 -0.609704 0.792268
vn -0.023915 -0.609704 0.792268
vn 0.127663 -0.496802 0.858423
vn -0.142337 -0.459317 0.876794
vn 0.239341 -0.632543 0.736617
vn 0.401286 -0.496802 0.769517
vn 0.127663 -0.496802 0.858423
vn 0.774525 -0.632543 0.0
vn 0.855859 -0.496802 0.143852
vn 0.746102 -0.609704 0.267569
vn 0.746102 -0.609704 0.267569
vn 0.855859 -0.496802 0.143852
vn 0.789896 -0.459317 0.406315
vn 0.774525 -0.632543 0.0
vn 0.855859 -0.496802 -0.143852
vn 0.855859 -0.496802 0.143852
vn 0.0 1.0 -0.0
vn 0.269732 0.487951 0.83015
vn 0.872871 0.487951 -0.0
vn 0.0 -1.0 -0.0
vn 0.706167 -0.487951 -0.513061
vn 0.706167 -0.487951 0.513061
vn 0.0 1.0 -0.0
vn 0.872871 0.487951 -0.0
vn 0.269732 0.487951 -0.83015
vn 0.0 1.0 -0.0
vn 0.269732 0.487951 -0.83015
vn -0.706167 0.487951 -0.513061
vn 0.0 1.0 -0.0
vn -0.706167 0.487951 -0.513061
vn -0.706167 0.487951 0.513061
vn 0.0 1.0 -0.0
vn -0.706167 0.487951 0.513061
vn 0.269732 0.487951 0.83015
vn 0.0 -1.0 -0.0
vn 0.706167 -0.487951 0.513061
vn -0.269732 -0.487951 0.830149
vn 0.0 -1.0 -0.0
vn -0.269732 -0.487951 0.830149
vn -0.872871 -0.487951 -0.0
vn 0.0 -1.0 -0.0
vn -0.872871 -0.487951 -0.0
vn -0.269731 -0.487951 -0.83015
vn 0.0 -1.0 -0.0
vn -0.269731 -0.487951 -0.83015
vn 0.706167 -0.487951 -0.513061
vn 0.872871 0.487951 -0.0
vn 0.706167 -0.487951 -0.513061
vn 0.269732 0.487951 -0.83015
vn 0.269732 0.487951 -0.83015
vn -0.269731 -0.487951 -0.83015
vn -0.706167 0.487951 -0.513061
vn -0.706167 0.487951 -0.513061
vn -0.872871 -0.487951 -0.0
vn -0.706167 0.487951 0.513061
vn -0.706167 0.487951 0.513061
vn -0.269732 -0.487951 0.830149
vn 0.269732 0.487951 0.83015
vn 0.269732 0.487951 0.83015
vn 0.706167 -0.487951 0.513061
vn 0.872871 0.487951 -0.0
vn -0.269731 -0.487951 -0.83015
vn 0.269732 0.487951 -0.83015
vn 0.706167 -0.487951 -0.513061
vn -0.872871 -0.487951 -0.0
vn -0.706167 0.487951 -0.513061
vn -0.269731 -0.487951 -0.83015
vn -0.269732 -0.487951 0.830149
vn -0.706167 0.487951 0.513061
vn -0.872871 -0.487951 -0.0
vn 0.706167 -0.487951 0.513061
vn 0.269732 0.487951 0.83015
vn -0.269732 -0.487951 0.830149
vn 0.706167 -0.487951 -0.513061
vn 0.872871 0.487951 -0.0
vn 0.706167 -0.487951 0.513061
vn 0.012279 -0.927347 -0.374
vn -0.060921 -0.927347 -0.36921
vn -0.004161 -0.881117 -0.47288
vn -0.060921 -0.927347 -0.36921
vn -0.096335 -0.881117 -0.462982
vn -0.004161 -0.881117 -0.47288
vn -0.060921 -0.927347 -0.36921
vn -0.13178 -0.927347 -0.35023
vn -0.096335 -0.881117 -0.462982
vn -0.13178 -0.927347 -0.35023
vn -0.184807 -0.881117 -0.435292
vn -0.096335 -0.881117 -0.462982
vn -0.13178 -0.927347 -0.35023
vn -0.197574 -0.927347 -0.317791
vn -0.184807 -0.881117 -0.435292
vn -0.197574 -0.927347 -0.317791
vn -0.266178 -0.881117 -0.390874
vn -0.184807 -0.881117 -0.435292
vn -0.197574 -0.927347 -0.317791
vn -0.255776 -0.927347 -0.27314
vn -0.266178 -0.881117 -0.390874
vn -0.255776 -0.927347 -0.27314
vn -0.337319 -0.881117 -0.331435
vn -0.266178 -0.881117 -0.390874
vn -0.255776 -0.927347 -0.27314
vn -0.304148 -0.927347 -0.217993
vn -0.337319 -0.881117 -0.331435
vn -0.304148 -0.927347 -0.217993
vn -0.395497 -0.881117 -0.259259
vn -0.337319 -0.881117 -0.331435
vn -0.304148 -0.927347 -0.217993
vn -0.340832 -0.927347 -0.154468
vn -0.395497 -0.881117 -0.259259
vn -0.340832 -0.927347 -0.154468
vn -0.438476 -0.881117 -0.177119
vn -0.395497 -0.881117 -0.259259
vn -0.340832 -0.927347 -0.154468
vn -0.364418 -0.927347 -0.085007
vn -0.438476 -0.881117 -0.177119
vn -0.364418 -0.927347 -0.085007
vn -0.464605 -0.881117 -0.088174
vn -0.438476 -0.881117 -0.177119
vn -0.364418 -0.927347 -0.085007
vn -0.374 -0.927347 -0.012279
vn -0.464605 -0.881117 -0.088174
vn -0.374 -0.927347 -0.012279
vn -0.47288 -0.881117 0.004161
vn -0.464605 -0.881117 -0.088174
vn -0.374 -0.927347 -0.012279
vn -0.369209 -0.927348 0.060921
vn -0.47288 -0.881117 0.004161
vn -0.369209 -0.927348 0.060921
vn -0.462982 -0.881117 0.096335
vn -0.47288 -0.881117 0.004161
vn -0.369209 -0.927348 0.060921
vn -0.350229 -0.927348 0.131779
vn -0.462982 -0.881117 0.096335
vn -0.350229 -0.927348 0.131779
vn -0.435292 -0.881117 0.184807
vn -0.462982 -0.881117 0.096335
vn -0.350229 -0.927348 0.131779
vn -0.317791 -0.927348 0.197574
vn -0.435292 -0.881117 0.184807
vn -0.317791 -0.927348 0.197574
vn -0.390874 -0.881117 0.266177
vn -0.435292 -0.881117 0.184807
vn -0.317791 -0.927348 0.197574
vn -0.27314 -0.927348 0.255775
vn -0.390874 -0.881117 0.266177
vn -0.27314 -0.927348 0.255775
vn -0.331434 -0.881117 0.337318
vn -0.390874 -0.881117 0.266177
vn -0.27314 -0.927348 0.255775
vn -0.217992 -0.927348 0.304147
vn -0.331434 -0.881117 0.337318
vn -0.217992 -0.927348 0.304147
vn -0.259258 -0.881117 0.395496
vn -0.331434 -0.881117 0.337318
vn -0.217992 -0.927348 0.304147
vn -0.154467 -0.927348 0.340831
vn -0.259258 -0.881117 0.395496
vn -0.154467 -0.927348 0.340831
vn -0.177119 -0.881118 0.438475
vn -0.259258 -0.881117 0.395496
vn -0.154467 -0.927348 0.340831
vn -0.085006 -0.927348 0.364417
vn -0.177119 -0.881118 0.438475
vn -0.085006 -0.927348 0.364417
vn -0.088174 -0.881117 0.464605
vn -0.177119 -0.881118 0.438475
vn -0.085006 -0.927348 0.364417
vn -0.012279 -0.927348 0.373999
vn -0.088174 -0.881117 0.464605
vn -0.012279 -0.927348 0.373999
vn 0.004161 -0.881117 0.472879
vn -0.088174 -0.881117 0.464605
vn -0.012279 -0.927348 0.373999
vn 0.060921 -0.927348 0.369208
vn 0.004161 -0.881117 0.472879
vn 0.060921 -0.927348 0.369208
vn 0.096335 -0.881117 0.462981
vn 0.004161 -0.881117 0.472879
vn 0.060921 -0.927348 0.369208
vn 0.131779 -0.927348 0.350229
vn 0.096335 -0.881117 0.462981
vn 0.131779 -0.927348 0.350229
vn 0.184807 -0.881118 0.435291
vn 0.096335 -0.881117 0.462981
vn 0.131779 -0.927348 0.350229
vn 0.197573 -0.927348 0.31779
vn 0.184807 -0.881118 0.435291
vn 0.197573 -0.927348 0.31779
vn 0.266177 -0.881117 0.390873
vn 0.184807 -0.881118 0.435291
vn 0.197573 -0.927348 0.31779
vn 0.255775 -0.927348 0.27314
vn 0.266177 -0.881117 0.390873
vn 0.255775 -0.927348 0.27314
vn 0.337318 -0.881117 0.331434
vn 0.266177 -0.881117 0.390873
vn 0.255775 -0.927348 0.27314
vn 0.304147 -0.927348 0.217992
vn 0.337318 -0.881117 0.331434
vn 0.304147 -0.927348 0.217992
vn 0.395496 -0.881117 0.259258
vn 0.337318 -0.881117 0.331434
vn 0.304147 -0.927348 0.217992
vn 0.340832 -0.927348 0.154467
vn 0.395496 -0.881117 0.259258
vn 0.340832 -0.927348 0.154467
vn 0.438476 -0.881117 0.177119
vn 0.395496 -0.881117 0.259258
vn 0.340832 -0.927348 0.154467
vn 0.364418 -0.927348 0.085006
vn 0.438476 -0.881117 0.177119
vn 0.364418 -0.927348 0.085006
vn 0.464605 -0.881117 0.088174
vn 0.438476 -0.881117 0.177119
vn 0.364418 -0.927348 0.085006
vn 0.373999 -0.927348 0.012279
vn 0.464605 -0.881117 0.088174
vn 0.373999 -0.927348 0.012279
vn 0.47288 -0.881117 -0.004161
vn 0.464605 -0.881117 0.088174
vn 0.373999 -0.927348 0.012279
vn 0.369209 -0.927348 -0.060921
vn 0.47288 -0.881117 -0.004161
vn 0.369209 -0.927348 -0.060921
vn 0.462982 -0.881117 -0.096335
vn 0.47288 -0.881117 -0.004161
vn 0.369209 -0.927348 -0.060921
vn 0.350229 -0.927348 -0.13178
vn 0.462982 -0.881117 -0.096335
vn 0.350229 -0.927348 -0.13178
vn 0.435292 -0.881117 -0.184807
vn 0.462982 -0.881117 -0.096335
vn 0.350229 -0.927348 -0.13178
vn 0.317791 -0.927347 -0.197574
vn 0.435292 -0.881117 -0.184807
vn 0.317791 -0.927347 -0.197574
vn 0.390874 -0.881117 -0.266178
vn 0.435292 -0.881117 -0.184807
vn 0.317791 -0.927347 -0.197574
vn 0.27314 -0.927347 -0.255776
vn 0.390874 -0.881117 -0.266178
vn 0.27314 -0.927347 -0.255776
vn 0.331435 -0.881117 -0.337319
vn 0.390874 -0.881117 -0.266178
vn 0.27314 -0.927347 -0.255776
vn 0.217993 -0.927347 -0.304148
vn 0.331435 -0.881117 -0.337319
vn 0.217993 -0.927347 -0.304148
vn 0.259259 -0.881117 -0.395497
vn 0.331435 -0.881117 -0.337319
vn 0.217993 -0.927347 -0.304148
vn 0.154468 -0.927347 -0.340832
vn 0.259259 -0.881117 -0.395497
vn 0.154468 -0.927347 -0.340832
vn 0.17712 -0.881117 -0.438477
vn 0.259259 -0.881117 -0.395497
vn 0.154468 -0.927347 -0.340832
vn 0.085007 -0.927347 -0.364419
vn 0.17712 -0.881117 -0.438477
vn 0.085007 -0.927347 -0.364419
vn 0.088174 -0.881117 -0.464606
vn 0.17712 -0.881117 -0.438477
vn 0.085007 -0.927347 -0.364419
vn 0.012279 -0.927347 -0.374
vn 0.088174 -0.881117 -0.464606
vn 0.012279 -0.927347 -0.374
vn -0.004161 -0.881117 -0.47288
vn 0.088174 -0.881117 -0.464606
vn -0.004161 -0.881117 -0.47288
vn -0.096335 -0.881117 -0.462982
vn -0.011241 -0.939489 -0.342394
vn -0.096335 -0.881117 -0.462982
vn -0.077823 -0.939489 -0.333622
vn -0.011241 -0.939489 -0.342394
vn -0.096335 -0.881117 -0.462982
vn -0.184807 -0.881117 -0.435292
vn -0.077823 -0.939489 -0.333622
vn -0.184807 -0.881117 -0.435292
vn -0.141414 -0.939489 -0.312029
vn -0.077823 -0.939489 -0.333622
vn -0.184807 -0.881117 -0.435292
vn -0.266178 -0.881117 -0.390874
vn -0.141414 -0.939489 -0.312029
vn -0.266178 -0.881117 -0.390874
vn -0.19957 -0.939489 -0.278445
vn -0.141414 -0.939489 -0.312029
vn -0.266178 -0.881117 -0.390874
vn -0.337319 -0.881117 -0.331435
vn -0.19957 -0.939489 -0.278445
vn -0.337319 -0.881117 -0.331435
vn -0.250058 -0.939489 -0.234161
vn -0.19957 -0.939489 -0.278445
vn -0.337319 -0.881117 -0.331435
vn -0.395497 -0.881117 -0.259259
vn -0.250058 -0.939489 -0.234161
vn -0.395497 -0.881117 -0.259259
vn -0.290935 -0.939489 -0.180877
vn -0.250058 -0.939489 -0.234161
vn -0.395497 -0.881117 -0.259259
vn -0.438476 -0.881117 -0.177119
vn -0.290935 -0.939489 -0.180877
vn -0.438476 -0.881117 -0.177119
vn -0.320632 -0.939489 -0.120643
vn -0.290935 -0.939489 -0.180877
vn -0.438476 -0.881117 -0.177119
vn -0.464605 -0.881117 -0.088174
vn -0.320632 -0.939489 -0.120643
vn -0.464605 -0.881117 -0.088174
vn -0.338008 -0.939489 -0.055773
vn -0.320632 -0.939489 -0.120643
vn -0.464605 -0.881117 -0.088174
vn -0.47288 -0.881117 0.004161
vn -0.338008 -0.939489 -0.055773
vn -0.47288 -0.881117 0.004161
vn -0.342394 -0.939489 0.011241
vn -0.338008 -0.939489 -0.055773
vn -0.47288 -0.881117 0.004161
vn -0.462982 -0.881117 0.096335
vn -0.342394 -0.939489 0.011241
vn -0.462982 -0.881117 0.096335
vn -0.333622 -0.939489 0.077823
vn -0.342394 -0.939489 0.011241
vn -0.462982 -0.881117 0.096335
vn -0.435292 -0.881117 0.184807
vn -0.333622 -0.939489 0.077823
vn -0.435292 -0.881117 0.184807
vn -0.312029 -0.939489 0.141414
vn -0.333622 -0.939489 0.077823
vn -0.435292 -0.881117 0.184807
vn -0.390874 -0.881117 0.266177
vn -0.312029 -0.939489 0.141414
vn -0.390874 -0.881117 0.266177
vn -0.278445 -0.939489 0.19957
vn -0.312029 -0.939489 0.141414
vn -0.390874 -0.881117 0.266177
vn -0.331434 -0.881117 0.337318
vn -0.278445 -0.939489 0.19957
vn -0.331434 -0.881117 0.337318
vn -0.23416 -0.939489 0.250057
vn -0.278445 -0.939489 0.19957
vn -0.331434 -0.881117 0.337318
vn -0.259258 -0.881117 0.395496
vn -0.23416 -0.939489 0.250057
vn -0.259258 -0.881117 0.395496
vn -0.180877 -0.939489 0.290935
vn -0.23416 -0.939489 0.250057
vn -0.259258 -0.881117 0.395496
vn -0.177119 -0.881118 0.438475
vn -0.180877 -0.939489 0.290935
vn -0.177119 -0.881118 0.438475
vn -0.120643 -0.939489 0.320632
vn -0.180877 -0.939489 0.290935
vn -0.177119 -0.881118 0.438475
vn -0.088174 -0.881117 0.464605
vn -0.120643 -0.939489 0.320632
vn -0.088174 -0.881117 0.464605
vn -0.055773 -0.939489 0.338007
vn -0.120643 -0.939489 0.320632
vn -0.088174 -0.881117 0.464605
vn 0.004161 -0.881117 0.472879
vn -0.055773 -0.939489 0.338007
vn 0.004161 -0.881117 0.472879
vn 0.011241 -0.939489 0.342393
vn -0.055773 -0.939489 0.338007
vn 0.004161 -0.881117 0.472879
vn 0.096335 -0.881117 0.462981
vn 0.011241 -0.939489 0.342393
vn 0.096335 -0.881117 0.462981
vn 0.077823 -0.939489 0.333621
vn 0.011241 -0.939489 0.342393
vn 0.096335 -0.881117 0.462981
vn 0.184807 -0.881118 0.435291
vn 0.077823 -0.939489 0.333621
vn 0.184807 -0.881118 0.435291
vn 0.141414 -0.939489 0.312029
vn 0.077823 -0.939489 0.333621
vn 0.184807 -0.881118 0.435291
vn 0.266177 -0.881117 0.390873
vn 0.141414 -0.939489 0.312029
vn 0.266177 -0.881117 0.390873
vn 0.19957 -0.939489 0.278445
vn 0.141414 -0.939489 0.312029
vn 0.266177 -0.881117 0.390873
vn 0.337318 -0.881117 0.331434
vn 0.19957 -0.939489 0.278445
vn 0.337318 -0.881117 0.331434
vn 0.250057 -0.939489 0.23416
vn 0.19957 -0.939489 0.278445
vn 0.337318 -0.881117 0.331434
vn 0.395496 -0.881117 0.259258
vn 0.250057 -0.939489 0.23416
vn 0.395496 -0.881117 0.259258
vn 0.290935 -0.939489 0.180877
vn 0.250057 -0.939489 0.23416
vn 0.395496 -0.881117 0.259258
vn 0.438476 -0.881117 0.177119
vn 0.290935 -0.939489 0.180877
vn 0.438476 -0.881117 0.177119
vn 0.320632 -0.939489 0.120643
vn 0.290935 -0.939489 0.180877
vn 0.438476 -0.881117 0.177119
vn 0.464605 -0.881117 0.088174
vn 0.320632 -0.939489 0.120643
vn 0.464605 -0.881117 0.088174
vn 0.338008 -0.939489 0.055773
vn 0.320632 -0.939489 0.120643
vn 0.464605 -0.881117 0.088174
vn 0.47288 -0.881117 -0.004161
vn 0.338008 -0.939489 0.055773
vn 0.47288 -0.881117 -0.004161
vn 0.342394 -0.939489 -0.011241
vn 0.338008 -0.939489 0.055773
vn 0.47288 -0.881117 -0.004161
vn 0.462982 -0.881117 -0.096335
vn 0.342394 -0.939489 -0.011241
vn 0.462982 -0.881117 -0.096335
vn 0.333622 -0.939489 -0.077823
vn 0.342394 -0.939489 -0.011241
vn 0.462982 -0.881117 -0.096335
vn 0.435292 -0.881117 -0.184807
vn 0.333622 -0.939489 -0.077823
vn 0.435292 -0.881117 -0.184807
vn 0.312029 -0.939489 -0.141414
vn 0.333622 -0.939489 -0.077823
vn 0.435292 -0.881117 -0.184807
vn 0.390874 -0.881117 -0.266178
vn 0.312029 -0.939489 -0.141414
vn 0.390874 -0.881117 -0.266178
vn 0.278445 -0.939489 -0.19957
vn 0.312029 -0.939489 -0.141414
vn 0.390874 -0.881117 -0.266178
vn 0.331435 -0.881117 -0.337319
vn 0.278445 -0.939489 -0.19957
vn 0.331435 -0.881117 -0.337319
vn 0.234161 -0.939489 -0.250058
vn 0.278445 -0.939489 -0.19957
vn 0.331435 -0.881117 -0.337319
vn 0.259259 -0.881117 -0.395497
vn 0.234161 -0.939489 -0.250058
vn 0.259259 -0.881117 -0.395497
vn 0.180877 -0.939489 -0.290935
vn 0.234161 -0.939489 -0.250058
vn 0.259259 -0.881117 -0.395497
vn 0.17712 -0.881117 -0.438477
vn 0.180877 -0.939489 -0.290935
vn 0.17712 -0.881117 -0.438477
vn 0.120643 -0.939489 -0.320633
vn 0.180877 -0.939489 -0.290935
vn 0.17712 -0.881117 -0.438477
vn 0.088174 -0.881117 -0.464606
vn 0.120643 -0.939489 -0.320633
vn 0.088174 -0.881117 -0.464606
vn 0.055773 -0.939489 -0.338008
vn 0.120643 -0.939489 -0.320633
vn 0.088174 -0.881117 -0.464606
vn -0.004161 -0.881117 -0.47288
vn 0.055773 -0.939489 -0.338008
vn -0.004161 -0.881117 -0.47288
vn -0.011241 -0.939489 -0.342394
vn 0.055773 -0.939489 -0.338008
vn -0.0 -1.0 -0.0
vn -0.060921 -0.927347 -0.36921
vn 0.012279 -0.927347 -0.374
vn -0.0 -1.0 -0.0
vn -0.13178 -0.927347 -0.35023
vn -0.060921 -0.927347 -0.36921
vn -0.0 -1.0 -0.0
vn -0.197574 -0.927347 -0.317791
vn -0.13178 -0.927347 -0.35023
vn -0.0 -1.0 -0.0
vn -0.255776 -0.927347 -0.27314
vn -0.197574 -0.927347 -0.317791
vn -0.0 -1.0 -0.0
vn -0.304148 -0.927347 -0.217993
vn -0.255776 -0.927347 -0.27314
vn -0.0 -1.0 -0.0
vn -0.340832 -0.927347 -0.154468
vn -0.304148 -0.927347 -0.217993
vn -0.0 -1.0 -0.0
vn -0.364418 -0.927347 -0.085007
vn -0.340832 -0.927347 -0.154468
vn -0.0 -1.0 -0.0
vn -0.374 -0.927347 -0.012279
vn -0.364418 -0.927347 -0.085007
vn -0.0 -1.0 -0.0
vn -0.369209 -0.927348 0.060921
vn -0.374 -0.927347 -0.012279
vn -0.0 -1.0 -0.0
vn -0.350229 -0.927348 0.131779
vn -0.369209 -0.927348 0.060921
vn -0.0 -1.0 -0.0
vn -0.317791 -0.927348 0.197574
vn -0.350229 -0.927348 0.131779
vn -0.0 -1.0 -0.0
vn -0.27314 -0.927348 0.255775
vn -0.317791 -0.927348 0.197574
vn -0.0 -1.0 -0.0
vn -0.217992 -0.927348 0.304147
vn -0.27314 -0.927348 0.255775
vn -0.0 -1.0 -0.0
vn -0.154467 -0.927348 0.340831
vn -0.217992 -0.927348 0.304147
vn -0.0 -1.0 -0.0
vn -0.085006 -0.927348 0.364417
vn -0.154467 -0.927348 0.340831
vn -0.0 -1.0 -0.0
vn -0.012279 -0.927348 0.373999
vn -0.085006 -0.927348 0.364417
vn -0.0 -1.0 -0.0
vn 0.060921 -0.927348 0.369208
vn -0.012279 -0.927348 0.373999
vn -0.0 -1.0 -0.0
vn 0.131779 -0.927348 0.350229
vn 0.060921 -0.927348 0.369208
vn -0.0 -1.0 -0.0
vn 0.197573 -0.927348 0.31779
vn 0.131779 -0.927348 0.350229
vn -0.0 -1.0 -0.0
vn 0.255775 -0.927348 0.27314
vn 0.197573 -0.927348 0.31779
vn -0.0 -1.0 -0.0
vn 0.304147 -0.927348 0.217992
vn 0.255775 -0.927348 0.27314
vn -0.0 -1.0 -0.0
vn 0.340832 -0.927348 0.154467
vn 0.304147 -0.927348 0.217992
vn -0.0 -1.0 -0.0
vn 0.364418 -0.927348 0.085006
vn 0.340832 -0.927348 0.154467
vn -0.0 -1.0 -0.0
vn 0.373999 -0.927348 0.012279
vn 0.364418 -0.927348 0.085006
vn -0.0 -1.0 -0.0
vn 0.369209 -0.927348 -0.060921
vn 0.373999 -0.927348 0.012279
vn -0.0 -1.0 -0.0
vn 0.350229 -0.927348 -0.13178
vn 0.369209 -0.927348 -0.060921
vn -0.0 -1.0 -0.0
vn 0.317791 -0.927347 -0.197574
vn 0.350229 -0.927348 -0.13178
vn -0.0 -1.0 -0.0
vn 0.27314 -0.927347 -0.255776
vn 0.317791 -0.927347 -0.197574
vn -0.0 -1.0 -0.0
vn 0.217993 -0.927347 -0.304148
vn 0.27314 -0.927347 -0.255776
vn -0.0 -1.0 -0.0
vn 0.154468 -0.927347 -0.340832
vn 0.217993 -0.927347 -0.304148
vn -0.0 -1.0 -0.0
vn 0.085007 -0.927347 -0.364419
vn 0.154468 -0.927347 -0.340832
vn -0.0 -1.0 -0.0
vn 0.012279 -0.927347 -0.374
vn 0.085007 -0.927347 -0.364419
vn 0.0 1.0 0.0
vn 0.0 1.0 0.0
vn 0.0 1.0 0.0
vn 0.0 1.0 0.0
vn 0.0 1.0 0.0
vn 0.0 1.0 0.0
vn 0.0 1.0 0.0
vn 0.0 1.0 0.0
vn 0.0 1.0 0.0
vn 0.0 1.0 0.0
vn 0.0 1.0 0.0
vn 0.0 1.0 0.0
vn 0.0 1.0 0.0
vn 0.0 1.0 0.0
vn 0.0 1.0 0.0
vn 0.0 1.0 0.0
vn 0.0 1.0 0.0
vn 0.0 1.0 0.0
vn 0.0 1.0 0.0
vn 0.0 1.0 0.0
vn 0.0 1.0 0.0
vn 0.0 1.0 0.0
vn 0.0 1.0 0.0
vn 0.0 1.0 0.0
vn 0.0 1.0 0.0
vn 0.0 1.0 0.0
vn 0.0 1.0 0.0
vn 0.0 1.0 0.0
vn 0.0 1.0 0.0
vn 0.0 1.0 0.0
vn 0.0 1.0 0.0
vn 0.0 1.0 0.0
vn 0.0 1.0 0.0
vn 0.0 1.0 0.0
vn 0.0 1.0 0.0
vn 0.0 1.0 0.0
vn 0.0 1.0 0.0
vn 0.0 1.0 0.0
vn 0.0 1.0 0.0
vn 0.0 1.0 0.0
vn 0.0 1.0 0.0
vn 0.0 1.0 0.0
vn 0.0 1.0 0.0
vn 0.0 1.0 0.0
vn 0.0 1.0 0.0
vn 0.0 1.0 0.0
vn 0.0 1.0 0.0
vn 0.0 1.0 0.0
vn 0.0 1.0 0.0
vn 0.0 1.0 0.0
vn 0.0 1.0 0.0
vn 0.0 1.0 0.0
vn 0.0 1.0 0.0
vn 0.0 1.0 0.0
vn 0.0 1.0 0.0
vn 0.0 1.0 0.0
vn 0.0 1.0 0.0
vn 0.0 1.0 0.0
vn 0.0 1.0 0.0
vn 0.0 1.0 0.0
vn 0.0 1.0 0.0
vn 0.0 1.0 0.0
vn 0.0 1.0 0.0
vn 0.0 1.0 0.0
vn 0.0 1.0 0.0
vn 0.0 1.0 0.0
vn 0.0 1.0 0.0
vn 0.0 1.0 0.0
vn 0.0 1.0 0.0
vn 0.0 1.0 0.0
vn 0.0 1.0 0.0
vn 0.0 1.0 0.0
vn 0.0 1.0 0.0
vn 0.0 1.0 0.0
vn 0.0 1.0 0.0
vn 0.0 1.0 0.0
vn 0.0 1.0 0.0
vn 0.0 1.0 0.0
vn 0.0 1.0 0.0
vn 0.0 1.0 0.0
vn 0.0 1.0 0.0
vn 0.0 1.0 0.0
vn 0.0 1.0 0.0
vn 0.0 1.0 0.0
vn 0.0 1.0 0.0
vn 0.0 1.0 0.0
vn 0.0 1.0 0.0
vn 0.0 1.0 0.0
vn 0.0 1.0 0.0
vn 0.0 1.0 0.0
vn 0.0 1.0 0.0
vn 0.0 1.0 0.0
vn 0.0 1.0 0.0
vn 0.0 1.0 0.0
vn 0.0 1.0 0.0
vn 0.0 1.0 0.0

# dome, 120 grouped triangles

usemtl textures/trak5/glass
o dome
g dome

f 1/1/1 17/2/2 19/3/3
f 1/4/4 19/5/5 21/6/6
f 1/7/7 21/8/8 23/9/9
f 1/10/10 23/11/11 25/12/12
f 1/13/13 25/14/14 17/15/15
f 3/16/16 27/17/17 29/18/18
f 4/19/19 30/20/20 32/21/21
f 5/22/22 33/23/23 35/24/24
f 6/25/25 36/26/26 38/27/27
f 2/28/28 39/29/29 41/30/30
f 2/31/31 41/32/32 43/33/33
f 6/34/34 44/35/35 46/36/36
f 7/37/37 42/38/38 18/39/39
f 6/40/40 38/41/41 44/42/42
f 5/43/43 48/44/44 50/45/45
f 9/46/46 47/47/47 20/48/48
f 5/49/49 35/50/50 48/51/51
f 4/52/52 52/53/53 54/54/54
f 11/55/55 51/56/56 22/57/57
f 4/58/58 32/59/59 52/60/60
f 3/61/61 56/62/62 58/63/63
f 13/64/64 55/65/65 24/66/66
f 3/67/67 29/68/68 56/69/69
f 2/70/70 43/71/71 61/72/72
f 15/73/73 59/74/74 26/75/75
f 2/76/76 62/77/77 39/78/78
f 3/79/79 63/80/80 27/81/81
f 4/82/82 64/83/83 30/84/84
f 5/85/85 65/86/86 33/87/87
f 6/88/88 66/89/89 36/90/90
f 2/91/91 61/92/92 62/93/93
f 3/94/94 58/95/95 63/96/96
f 4/97/97 54/98/98 64/99/99
f 5/100/100 50/101/101 65/102/102
f 6/103/103 46/104/104 66/105/105
f 7/106/106 18/107/107 17/108/108
f 9/109/109 19/110/110 18/111/111
f 17/112/112 18/113/113 19/114/114
f 9/115/115 20/116/116 19/117/117
f 11/118/118 21/119/119 20/120/120
f 19/121/121 20/122/122 21/123/123
f 11/124/124 22/125/125 21/126/126
f 13/127/127 23/128/128 22/129/129
f 21/130/130 22/131/131 23/132/132
f 13/133/133 24/134/134 23/135/135
f 15/136/136 25/137/137 24/138/138
f 23/139/139 24/140/140 25/141/141
f 15/142/142 26/143/143 25/144/144
f 7/145/145 17/146/146 26/147/147
f 25/148/148 26/149/149 17/150/150
f 16/151/151 29/152/152 28/153/153
f 27/154/154 28/155/155 29/156/156
f 14/157/157 32/158/158 31/159/159
f 30/160/160 31/161/161 32/162/162
f 12/163/163 35/164/164 34/165/165
f 33/166/166 34/167/167 35/168/168
f 10/169/169 38/170/170 37/171/171
f 36/172/172 37/173/173 38/174/174
f 8/175/175 41/176/176 40/177/177
f 39/178/178 40/179/179 41/180/180
f 8/181/181 42/182/182 41/183/183
f 7/184/184 43/185/185 42/186/186
f 41/187/187 42/188/188 43/189/189
f 9/190/190 45/191/191 44/192/192
f 8/193/193 46/194/194 45/195/195
f 44/196/196 45/197/197 46/198/198
f 8/199/199 45/200/200 42/201/201
f 9/202/202 18/203/203 45/204/204
f 42/205/205 45/206/206 18/207/207
f 10/208/208 47/209/209 38/210/210
f 9/211/211 44/212/212 47/213/213
f 38/214/214 47/215/215 44/216/216
f 11/217/217 49/218/218 48/219/219
f 10/220/220 50/221/221 49/222/222
f 48/223/223 49/224/224 50/225/225
f 10/226/226 49/227/227 47/228/228
f 11/229/229 20/230/230 49/231/231
f 47/232/232 49/233/233 20/234/234
f 12/235/235 51/236/236 35/237/237
f 11/238/238 48/239/239 51/240/240
f 35/241/241 51/242/242 48/243/243
f 13/244/244 53/245/245 52/246/246
f 12/247/247 54/248/248 53/249/249
f 52/250/250 53/251/251 54/252/252
f 12/253/253 53/254/254 51/255/255
f 13/256/256 22/257/257 53/258/258
f 51/259/259 53/260/260 22/261/261
f 14/262/262 55/263/263 32/264/264
f 13/265/265 52/266/266 55/267/267
f 32/268/268 55/269/269 52/270/270
f 15/271/271 57/272/272 56/273/273
f 14/274/274 58/275/275 57/276/276
f 56/277/277 57/278/278 58/279/279
f 14/280/280 57/281/281 55/282/282
f 15/283/283 24/284/284 57/285/285
f 55/286/286 57/287/287 24/288/288
f 16/289/289 59/290/290 29/291/291
f 15/292/292 56/293/293 59/294/294
f 29/295/295 59/296/296 56/297/297
f 7/298/298 60/299/299 43/300/300
f 16/301/301 61/302/302 60/303/303
f 43/304/304 60/305/305 61/306/306
f 16/307/307 60/308/308 59/309/309
f 7/310/310 26/311/311 60/312/312
f 59/313/313 60/314/314 26/315/315
f 16/316/316 67/317/317 61/318/318
f 61/319/319 67/320/320 62/321/321
f 16/322/322 28/323/323 67/324/324
f 14/325/325 68/326/326 58/327/327
f 58/328/328 68/329/329 63/330/330
f 14/331/331 31/332/332 68/333/333
f 12/334/334 69/335/335 54/336/336
f 54/337/337 69/338/338 64/339/339
f 12/340/340 34/341/341 69/342/342
f 10/343/343 70/344/344 50/345/345
f 50/346/346 70/347/347 65/348/348
f 10/349/349 37/350/350 70/351/351
f 8/352/352 71/353/353 46/354/354
f 46/355/355 71/356/356 66/357/357
f 8/358/358 40/359/359 71/360/360
# gem, 20 grouped triangles

usemtl textures/evil8_base/e8metal03c_shiney
o gem
g gem

f 72/361/361 82/362/362 74/363/363
f 73/364/364 75/365/365 83/366/366
f 72/367/367 74/368/368 76/369/369
f 72/370/370 76/371/371 78/372/372
f 72/373/373 78/374/374 80/375/375
f 72/376/376 80/377/377 82/378/378
f 73/379/379 83/380/380 81/381/381
f 73/382/382 81/383/383 79/384/384
f 73/385/385 79/386/386 77/387/387
f 73/388/388 77/389/389 75/390/390
f 74/391/391 75/392/392 76/393/393
f 76/394/394 77/395/395 78/396/396
f 78/397/397 79/398/398 80/399/399
f 80/400/400 81/401/401 82/402/402
f 82/403/403 83/404/404 74/405/405
f 77/406/406 76/407/407 75/408/408
f 79/409/409 78/410/410 77/411/411
f 81/412/412 80/413/413 79/414/414
f 83/415/415 82/416/416 81/417/417
f 75/418/418 74/419/419 83/420/420
# base, 192 grouped triangles

usemtl textures/evil8_base/e8metal03c_shiney
o base
g base

f 84/421/421 85/422/422 116/423/423
f 85/424/424 117/425/425 116/426/426
f 85/427/427 86/428/428 117/429/429
f 86/430/430 118/431/431 117/432/432
f 86/433/433 87/434/434 118/435/435
f 87/436/436 119/437/437 118/438/438
f 87/439/439 88/440/440 119/441/441
f 88/442/442 120/443/443 119/444/444
f 88/445/445 89/446/446 120/447/447
f 89/448/448 121/449/449 120/450/450
f 89/451/451 90/452/452 121/453/453
f 90/454/454 122/455/455 121/456/456
f 90/457/457 91/458/458 122/459/459
f 91/460/460 123/461/461 122/462/462
f 91/463/463 92/464/464 123/465/465
f 92/466/466 124/467/467 123/468/468
f 92/469/469 93/470/470 124/471/471
f 93/472/472 125/473/473 124/474/474
f 93/475/475 94/476/476 125/477/477
f 94/478/478 126/479/479 125/480/480
f 94/481/481 95/482/482 126/483/483
f 95/484/484 127/485/485 126/486/486
f 95/487/487 96/488/488 127/489/489
f 96/490/490 128/491/491 127/492/492
f 96/493/493 97/494/494 128/495/495
f 97/496/496 129/497/497 128/498/498
f 97/499/499 98/500/500 129/501/501
f 98/502/502 130/503/503 129/504/504
f 98/505/505 99/506/506 130/507/507
f 99/508/508 131/509/509 130/510/510
f 99/511/511 100/512/512 131/513/513
f 100/514/514 132/515/515 131/516/516
f 100/517/517 101/518/518 132/519/519
f 101/520/520 133/521/521 132/522/522
f 101/523/523 102/524/524 133/525/525
f 102/526/526 134/527/527 133/528/528
f 102/529/529 103/530/530 134/531/531
f 103/532/532 135/533/533 134/534/534
f 103/535/535 104/536/536 135/537/537
f 104/538/538 136/539/539 135/540/540
f 104/541/541 105/542/542 136/543/543
f 105/544/544 137/545/545 136/546/546
f 105/547/547 106/548/548 137/549/549
f 106/550/550 138/551/551 137/552/552
f 106/553/553 107/554/554 138/555/555
f 107/556/556 139/557/557 138/558/558
f 107/559/559 108/560/560 139/561/561
f 108/562/562 140/563/563 139/564/564
f 108/565/565 109/566/566 140/567/567
f 109/568/568 141/569/569 140/570/570
f 109/571/571 110/572/572 141/573/573
f 110/574/574 142/575/575 141/576/576
f 110/577/577 111/578/578 142/579/579
f 111/580/580 143/581/581 142/582/582
f 111/583/583 112/584/584 143/585/585
f 112/586/586 144/587/587 143/588/588
f 112/589/589 113/590/590 144/591/591
f 113/592/592 145/593/593 144/594/594
f 113/595/595 114/596/596 145/597/597
f 114/598/598 146/599/599 145/600/600
f 114/601/601 115/602/602 146/603/603
f 115/604/604 147/605/605 146/606/606
f 115/607/607 84/608/608 147/609/609
f 84/610/610 116/611/611 147/612/612
f 116/613/613 117/614/614 148/615/615
f 117/616/616 149/617/617 148/618/618
f 117/619/619 118/620/620 149/621/621
f 118/622/622 150/623/623 149/624/624
f 118/625/625 119/626/626 150/627/627
f 119/628/628 151/629/629 150/630/630
f 119/631/631 120/632/632 151/633/633
f 120/634/634 152/635/635 151/636/636
f 120/637/637 121/638/638 152/639/639
f 121/640/640 153/641/641 152/642/642
f 121/643/643 122/644/644 153/645/645
f 122/646/646 154/647/647 153/648/648
f 122/649/649 123/650/650 154/651/651
f 123/652/652 155/653/653 154/654/654
f 123/655/655 124/656/656 155/657/657
f 124/658/658 156/659/659 155/660/660
f 124/661/661 125/662/662 156/663/663
f 125/664/664 157/665/665 156/666/666
f 125/667/667 126/668/668 157/669/669
f 126/670/670 158/671/671 157/672/672
f 126/673/673 127/674/674 158/675/675
f 127/676/676 159/677/677 158/678/678
f 127/679/679 128/680/680 159/681/681
f 128/682/682 160/683/683 159/684/684
f 128/685/685 129/686/686 160/687/687
f 129/688/688 161/689/689 160/690/690
f 129/691/691 130/692/692 161/693/693
f 130/694/694 162/695/695 161/696/696
f 130/697/697 131/698/698 162/699/699
f 131/700/700 163/701/701 162/702/702
f 131/703/703 132/704/704 163/705/705
f 132/706/706 164/707/707 163/708/708
f 132/709/709 133/710/710 164/711/711
f 133/712/712 165/713/713 164/714/714
f 133/715/715 134/716/716 165/717/717
f 134/718/718 166/719/719 165/720/720
f 134/721/721 135/722/722 166/723/723
f 135/724/724 167/725/725 166/726/726
f 135/727/727 136/728/728 167/729/729
f 136/730/730 168/731/731 167/732/732
f 136/733/733 137/734/734 168/735/735
f 137/736/736 169/737/737 168/738/738
f 137/739/739 138/740/740 169/741/741
f 138/742/742 170/743/743 169/744/744
f 138/745/745 139/746/746 170/747/747
f 139/748/748 171/749/749 170/750/750
f 139/751/751 140/752/752 171/753/753
f 140/754/754 172/755/755 171/756/756
f 140/757/757 141/758/758 172/759/759
f 141/760/760 173/761/761 172/762/762
f 141/763/763 142/764/764 173/765/765
f 142/766/766 174/767/767 173/768/768
f 142/769/769 143/770/770 174/771/771
f 143/772/772 175/773/773 174/774/774
f 143/775/775 144/776/776 175/777/777
f 144/778/778 176/779/779 175/780/780
f 144/781/781 145/782/782 176/783/783
f 145/784/784 177/785/785 176/786/786
f 145/787/787 146/788/788 177/789/789
f 146/790/790 178/791/791 177/792/792
f 146/793/793 147/794/794 178/795/795
f 147/796/796 179/797/797 178/798/798
f 147/799/799 116/800/800 179/801/801
f 116/802/802 148/803/803 179/804/804
f 180/805/805 85/806/806 84/807/807
f 180/808/808 86/809/809 85/810/810
f 180/811/811 87/812/812 86/813/813
f 180/814/814 88/815/815 87/816/816
f 180/817/817 89/818/818 88/819/819
f 180/820/820 90/821/821 89/822/822
f 180/823/823 91/824/824 90/825/825
f 180/826/826 92/827/827 91/828/828
f 180/829/829 93/830/830 92/831/831
f 180/832/832 94/833/833 93/834/834
f 180/835/835 95/836/836 94/837/837
f 180/838/838 96/839/839 95/840/840
f 180/841/841 97/842/842 96/843/843
f 180/844/844 98/845/845 97/846/846
f 180/847/847 99/848/848 98/849/849
f 180/850/850 100/851/851 99/852/852
f 180/853/853 101/854/854 100/855/855
f 180/856/856 102/857/857 101/858/858
f 180/859/859 103/860/860 102/861/861
f 180/862/862 104/863/863 103/864/864
f 180/865/865 105/866/866 104/867/867
f 180/868/868 106/869/869 105/870/870
f 180/871/871 107/872/872 106/873/873
f 180/874/874 108/875/875 107/876/876
f 180/877/877 109/878/878 108/879/879
f 180/880/880 110/881/881 109/882/882
f 180/883/883 111/884/884 110/885/885
f 180/886/886 112/887/887 111/888/888
f 180/889/889 113/890/890 112/891/891
f 180/892/892 114/893/893 113/894/894
f 180/895/895 115/896/896 114/897/897
f 180/898/898 84/899/899 115/900/900
f 181/901/901 148/902/902 149/903/903
f 181/904/904 149/905/905 150/906/906
f 181/907/907 150/908/908 151/909/909
f 181/910/910 151/911/911 152/912/912
f 181/913/913 152/914/914 153/915/915
f 181/916/916 153/917/917 154/918/918
f 181/919/919 154/920/920 155/921/921
f 181/922/922 155/923/923 156/924/924
f 181/925/925 156/926/926 157/927/927
f 181/928/928 157/929/929 158/930/930
f 181/931/931 158/932/932 159/933/933
f 181/934/934 159/935/935 160/936/936
f 181/937/937 160/938/938 161/939/939
f 181/940/940 161/941/941 162/942/942
f 181/943/943 162/944/944 163/945/945
f 181/946/946 163/947/947 164/948/948
f 181/949/949 164/950/950 165/951/951
f 181/952/952 165/953/953 166/954/954
f 181/955/955 166/956/956 167/957/957
f 181/958/958 167/959/959 168/960/960
f 181/961/961 168/962/962 169/963/963
f 181/964/964 169/965/965 170/966/966
f 181/967/967 170/968/968 171/969/969
f 181/970/970 171/971/971 172/972/972
f 181/973/973 172/974/974 173/975/975
f 181/976/976 173/977/977 174/978/978
f 181/979/979 174/980/980 175/981/981
f 181/982/982 175/983/983 176/984/984
f 181/985/985 176/986/986 177/987/987
f 181/988/988 177/989/989 178/990/990
f 181/991/991 178/992/992 179/993/993
f 181/994/994 179/995/995 148/996/996
