# Generated by Q3Map2 (ydnar) -convert -format obj
newmtl textures/egyptsoc_mat/block01b
Kd 1.000000 0.760762 0.474632
map_Kd ../textures/egyptsoc_mat/block01b.tga
newmtl noshader
Kd 1.000000 1.000000 1.000000
map_Kd ../noshader.tga
newmtl textures/common/caulk
Kd 1.000000 1.000000 1.000000
map_Kd ../textures/common/caulk.tga
newmtl textures/egyptsoc_trim/s064-05a
Kd 1.000000 0.898077 0.779503
map_Kd ../textures/egyptsoc_trim/s064-05a.tga
newmtl textures/evil8_base/e8metal03c_shiney
Kd 0.986199 1.000000 0.976514
map_Kd ../textures/evil8_base/e8metal03c.jpg
newmtl textures/egyptsoc_floor/block02b
Kd 1.000000 0.763487 0.498087
map_Kd ../textures/egyptsoc_floor/block02b.tga
newmtl textures/egyptsoc_mat/block01a
Kd 1.000000 0.902969 0.789694
map_Kd ../textures/egyptsoc_mat/block01a.tga
