o sign-post-001
# Generated by Q3Map2 (ydnar) -convert -format obj
mtllib sign-post-001.mtl
g mat3model0surf0
# SURFACETYPE MST_PLANAR
usemtl textures/egyptsoc_trim/064-01a
# vertex 1
v 24.000000 24.000000 0.000000
vn 1.000000 0.000000 0.000000
vt 1.000000 0.000000
# vertex 2
v 24.000000 -24.000000 0.000000
vn 1.000000 0.000000 0.000000
vt 0.000000 0.000000
# vertex 3
v 24.000000 24.000000 8.000000
vn 1.000000 0.000000 0.000000
vt 1.000000 1.000000
# vertex 4
v 24.000000 -24.000000 8.000000
vn 1.000000 0.000000 0.000000
vt 0.000000 1.000000
f 1/1/1 3/3/3 2/2/2
f 3/3/3 4/4/4 2/2/2
g mat3model0surf1
# SURFACETYPE MST_PLANAR
# vertex 5
v -24.000000 24.000000 8.000000
vn 0.000000 1.000000 0.000000
vt 0.000000 1.000000
# vertex 6
v -24.000000 24.000000 0.000000
vn 0.000000 1.000000 0.000000
vt 0.000000 0.000000
# vertex 7
v 24.000000 24.000000 8.000000
vn 0.000000 1.000000 0.000000
vt 1.000000 1.000000
# vertex 8
v 24.000000 24.000000 0.000000
vn 0.000000 1.000000 0.000000
vt 1.000000 0.000000
f 5/5/5 7/7/7 6/6/6
f 7/7/7 8/8/8 6/6/6
g mat3model0surf2
# SURFACETYPE MST_PLANAR
# vertex 9
v -24.000000 -24.000000 8.000000
vn -1.000000 0.000000 0.000000
vt 0.000000 1.000000
# vertex 10
v -24.000000 -24.000000 0.000000
vn -1.000000 0.000000 0.000000
vt 0.000000 0.000000
# vertex 11
v -24.000000 24.000000 8.000000
vn -1.000000 0.000000 0.000000
vt 1.000000 1.000000
# vertex 12
v -24.000000 24.000000 0.000000
vn -1.000000 0.000000 0.000000
vt 1.000000 0.000000
f 9/9/9 11/11/11 10/10/10
f 11/11/11 12/12/12 10/10/10
g mat5model0surf3
# SURFACETYPE MST_PLANAR
usemtl textures/egyptsoc_trim/s064-05a
# vertex 13
v 14.000000 -14.000000 120.000000
vn 0.924678 0.000000 0.380750
vt -0.437500 0.000000
# vertex 14
v 0.000000 0.000000 154.000000
vn 0.924678 0.000000 0.380750
vt 0.000000 1.062500
# vertex 15
v 14.000000 14.000000 120.000000
vn 0.924678 0.000000 0.380750
vt 0.437500 0.000000
f 13/13/13 15/15/15 14/14/14
g mat5model0surf4
# SURFACETYPE MST_PLANAR
# vertex 16
v -14.000000 14.000000 120.000000
vn 0.000000 0.924678 0.380750
vt -0.437500 0.000000
# vertex 17
v 14.000000 14.000000 120.000000
vn 0.000000 0.924678 0.380750
vt 0.437500 0.000000
# vertex 18
v 0.000000 0.000000 154.000000
vn 0.000000 0.924678 0.380750
vt 0.000000 1.062500
f 16/16/16 18/18/18 17/17/17
g mat5model0surf5
# SURFACETYPE MST_PLANAR
# vertex 19
v -14.000000 -14.000000 120.000000
vn 0.000000 -0.924678 0.380750
vt -0.437500 0.000000
# vertex 20
v 0.000000 0.000000 154.000000
vn 0.000000 -0.924678 0.380750
vt 0.000000 1.062500
# vertex 21
v 14.000000 -14.000000 120.000000
vn 0.000000 -0.924678 0.380750
vt 0.437500 0.000000
f 19/19/19 21/21/21 20/20/20
g mat5model0surf6
# SURFACETYPE MST_PLANAR
# vertex 22
v -14.000000 -14.000000 120.000000
vn -0.924678 0.000000 0.380750
vt -0.437500 0.000000
# vertex 23
v -14.000000 14.000000 120.000000
vn -0.924678 0.000000 0.380750
vt 0.437500 0.000000
# vertex 24
v 0.000000 0.000000 154.000000
vn -0.924678 0.000000 0.380750
vt 0.000000 1.062500
f 22/22/22 24/24/24 23/23/23
g mat6model0surf7
# SURFACETYPE MST_PLANAR
usemtl textures/egyptsoc_trim/v064-03a
# vertex 25
v 16.000000 -16.000000 8.000000
vn 0.000000 -0.999841 0.017854
vt 1.000000 0.000000
# vertex 26
v -16.000000 -16.000000 8.000000
vn 0.000000 -0.999841 0.017854
vt -1.000000 0.000000
# vertex 27
v 14.000000 -14.000000 120.000000
vn 0.000000 -0.999841 0.017854
vt 0.875000 1.750000
# vertex 28
v -14.000000 -14.000000 120.000000
vn 0.000000 -0.999841 0.017854
vt -0.875000 1.750000
f 25/25/25 27/27/27 26/26/26
f 27/27/27 28/28/28 26/26/26
g mat4model0surf8
# SURFACETYPE MST_PLANAR
usemtl textures/egyptsoc_trim/v064-02a
# vertex 29
v 16.000000 16.000000 8.000000
vn 0.999841 0.000000 0.017854
vt 1.000000 0.000000
# vertex 30
v 14.000000 -14.000000 120.000000
vn 0.999841 0.000000 0.017854
vt -0.875000 1.750000
# vertex 31
v 14.000000 14.000000 120.000000
vn 0.999841 0.000000 0.017854
vt 0.875000 1.750000
# vertex 32
v 16.000000 -16.000000 8.000000
vn 0.999841 0.000000 0.017854
vt -1.000000 0.000000
f 29/29/29 31/31/31 30/30/30
f 32/32/32 29/29/29 30/30/30
g mat4model0surf9
# SURFACETYPE MST_PLANAR
# vertex 33
v -14.000000 14.000000 120.000000
vn 0.000000 0.999841 0.017854
vt -0.875000 1.750000
# vertex 34
v -16.000000 16.000000 8.000000
vn 0.000000 0.999841 0.017854
vt -1.000000 0.000000
# vertex 35
v 14.000000 14.000000 120.000000
vn 0.000000 0.999841 0.017854
vt 0.875000 1.750000
# vertex 36
v 16.000000 16.000000 8.000000
vn 0.000000 0.999841 0.017854
vt 1.000000 0.000000
f 33/33/33 35/35/35 34/34/34
f 35/35/35 36/36/36 34/34/34
g mat4model0surf10
# SURFACETYPE MST_PLANAR
# vertex 37
v -14.000000 -14.000000 120.000000
vn -0.999841 0.000000 0.017854
vt -0.875000 1.750000
# vertex 38
v -16.000000 -16.000000 8.000000
vn -0.999841 0.000000 0.017854
vt -1.000000 0.000000
# vertex 39
v -14.000000 14.000000 120.000000
vn -0.999841 0.000000 0.017854
vt 0.875000 1.750000
# vertex 40
v -16.000000 16.000000 8.000000
vn -0.999841 0.000000 0.017854
vt 1.000000 0.000000
f 37/37/37 39/39/39 38/38/38
f 39/39/39 40/40/40 38/38/38
g mat7model0surf11
# SURFACETYPE MST_PLANAR
usemtl textures/egyptsoc_trim/064-02a
# vertex 41
v 24.000000 -24.000000 0.000000
vn 0.000000 -1.000000 0.000000
vt 1.000000 0.000000
# vertex 42
v -24.000000 -24.000000 0.000000
vn 0.000000 -1.000000 0.000000
vt 0.000000 0.000000
# vertex 43
v 24.000000 -24.000000 8.000000
vn 0.000000 -1.000000 0.000000
vt 1.000000 1.000000
# vertex 44
v -24.000000 -24.000000 8.000000
vn 0.000000 -1.000000 0.000000
vt 0.000000 1.000000
f 41/41/41 43/43/43 42/42/42
f 43/43/43 44/44/44 42/42/42
g mat1model0surf12
# SURFACETYPE MST_PLANAR
usemtl textures/egyptsoc_trim/s128-01a
# vertex 45
v 24.000000 24.000000 8.000000
vn 0.000000 0.000000 1.000000
vt 1.000000 1.000000
# vertex 46
v 16.000000 -16.000000 8.000000
vn 0.000000 0.000000 1.000000
vt 0.833333 0.166667
# vertex 47
v 16.000000 16.000000 8.000000
vn 0.000000 0.000000 1.000000
vt 0.833333 0.833333
# vertex 48
v 24.000000 -24.000000 8.000000
vn 0.000000 0.000000 1.000000
vt 1.000000 0.000000
# vertex 49
v -24.000000 24.000000 8.000000
vn 0.000000 0.000000 1.000000
vt 0.000000 1.000000
# vertex 50
v -16.000000 16.000000 8.000000
vn 0.000000 0.000000 1.000000
vt 0.166667 0.833333
# vertex 51
v -24.000000 -24.000000 8.000000
vn 0.000000 0.000000 1.000000
vt 0.000000 0.000000
# vertex 52
v -16.000000 -16.000000 8.000000
vn 0.000000 0.000000 1.000000
vt 0.166667 0.166667
f 45/45/45 49/49/49 47/47/47
f 45/45/45 47/47/47 46/46/46
f 47/47/47 49/49/49 50/50/50
f 45/45/45 46/46/46 48/48/48
f 49/49/49 51/51/51 50/50/50
f 46/46/46 51/51/51 48/48/48
f 46/46/46 52/52/52 51/51/51
f 50/50/50 51/51/51 52/52/52
g mat1model0surf13
# SURFACETYPE MST_PLANAR
# vertex 53
v -24.000000 24.000000 0.000000
vn 0.000000 0.000000 -1.000000
vt 0.000000 1.000000
# vertex 54
v -24.000000 -24.000000 0.000000
vn 0.000000 0.000000 -1.000000
vt 0.000000 0.000000
# vertex 55
v 24.000000 24.000000 0.000000
vn 0.000000 0.000000 -1.000000
vt 1.000000 1.000000
# vertex 56
v 24.000000 -24.000000 0.000000
vn 0.000000 0.000000 -1.000000
vt 1.000000 0.000000
f 53/53/53 55/55/55 54/54/54
f 55/55/55 56/56/56 54/54/54
