o sign-post-002
# Generated by Q3Map2 (ydnar) -convert -format obj
mtllib sign-post-002.mtl
g mat6model0surf0
# SURFACETYPE MST_PLANAR
usemtl textures/egyptsoc_trim/v128-03f
# vertex 1
v 6.000000 -6.000000 3.000000
vn 0.000000 -1.000000 0.000000
vt 1.000000 -0.000000
# vertex 2
v -6.000000 -6.000000 3.000000
vn 0.000000 -1.000000 0.000000
vt 0.000000 -0.000000
# vertex 3
v 6.000000 -6.000000 40.000000
vn 0.000000 -1.000000 0.000000
vt 1.000000 1.000000
# vertex 4
v -6.000000 -6.000000 40.000000
vn 0.000000 -1.000000 0.000000
vt 0.000000 1.000000
f 1/1/1 3/3/3 2/2/2
f 3/3/3 4/4/4 2/2/2
g mat5model0surf1
# SURFACETYPE MST_PLANAR
usemtl textures/egyptsoc_trim/v128-02a
# vertex 5
v 6.000000 6.000000 3.000000
vn 1.000000 0.000000 0.000000
vt 1.000000 -0.000000
# vertex 6
v 6.000000 -6.000000 3.000000
vn 1.000000 0.000000 0.000000
vt 0.000000 -0.000000
# vertex 7
v 6.000000 6.000000 40.000000
vn 1.000000 0.000000 0.000000
vt 1.000000 1.000000
# vertex 8
v 6.000000 -6.000000 40.000000
vn 1.000000 0.000000 0.000000
vt 0.000000 1.000000
f 5/5/5 7/7/7 6/6/6
f 7/7/7 8/8/8 6/6/6
g mat5model0surf2
# SURFACETYPE MST_PLANAR
# vertex 9
v -6.000000 6.000000 40.000000
vn 0.000000 1.000000 0.000000
vt 0.000000 1.000000
# vertex 10
v -6.000000 6.000000 3.000000
vn 0.000000 1.000000 0.000000
vt 0.000000 -0.000000
# vertex 11
v 6.000000 6.000000 40.000000
vn 0.000000 1.000000 0.000000
vt 1.000000 1.000000
# vertex 12
v 6.000000 6.000000 3.000000
vn 0.000000 1.000000 0.000000
vt 1.000000 -0.000000
f 9/9/9 11/11/11 10/10/10
f 11/11/11 12/12/12 10/10/10
g mat5model0surf3
# SURFACETYPE MST_PLANAR
# vertex 13
v -6.000000 -6.000000 40.000000
vn -1.000000 0.000000 0.000000
vt 0.000000 1.000000
# vertex 14
v -6.000000 -6.000000 3.000000
vn -1.000000 0.000000 0.000000
vt 0.000000 -0.000000
# vertex 15
v -6.000000 6.000000 40.000000
vn -1.000000 0.000000 0.000000
vt 1.000000 1.000000
# vertex 16
v -6.000000 6.000000 3.000000
vn -1.000000 0.000000 0.000000
vt 1.000000 -0.000000
f 13/13/13 15/15/15 14/14/14
f 15/15/15 16/16/16 14/14/14
g mat4model0surf4
# SURFACETYPE MST_PLANAR
usemtl textures/egyptsoc_trim/s128-02a
# vertex 17
v 6.000000 6.000000 40.000000
vn 0.554700 0.000000 0.832050
vt 1.000000 1.000000
# vertex 18
v 3.000000 -3.000000 42.000000
vn 0.554700 0.000000 0.832050
vt 0.750000 0.250000
# vertex 19
v 3.000000 3.000000 42.000000
vn 0.554700 0.000000 0.832050
vt 0.750000 0.750000
# vertex 20
v 6.000000 -6.000000 40.000000
vn 0.554700 0.000000 0.832050
vt 1.000000 0.000000
f 17/17/17 19/19/19 18/18/18
f 20/20/20 17/17/17 18/18/18
g mat4model0surf5
# SURFACETYPE MST_PLANAR
# vertex 21
v 3.000000 -3.000000 42.000000
vn 0.000000 0.000000 1.000000
vt 0.750000 0.250000
# vertex 22
v -3.000000 -3.000000 42.000000
vn 0.000000 0.000000 1.000000
vt 0.250000 0.250000
# vertex 23
v 3.000000 3.000000 42.000000
vn 0.000000 0.000000 1.000000
vt 0.750000 0.750000
# vertex 24
v -3.000000 3.000000 42.000000
vn 0.000000 0.000000 1.000000
vt 0.250000 0.750000
f 21/21/21 23/23/23 22/22/22
f 23/23/23 24/24/24 22/22/22
g mat4model0surf6
# SURFACETYPE MST_PLANAR
# vertex 25
v -3.000000 3.000000 42.000000
vn 0.000000 0.554700 0.832050
vt 0.250000 0.750000
# vertex 26
v -6.000000 6.000000 40.000000
vn 0.000000 0.554700 0.832050
vt 0.000000 1.000000
# vertex 27
v 3.000000 3.000000 42.000000
vn 0.000000 0.554700 0.832050
vt 0.750000 0.750000
# vertex 28
v 6.000000 6.000000 40.000000
vn 0.000000 0.554700 0.832050
vt 1.000000 1.000000
f 25/25/25 27/27/27 26/26/26
f 27/27/27 28/28/28 26/26/26
g mat4model0surf7
# SURFACETYPE MST_PLANAR
# vertex 29
v -3.000000 -3.000000 42.000000
vn -0.554700 0.000000 0.832050
vt 0.250000 0.250000
# vertex 30
v -6.000000 -6.000000 40.000000
vn -0.554700 0.000000 0.832050
vt 0.000000 0.000000
# vertex 31
v -3.000000 3.000000 42.000000
vn -0.554700 0.000000 0.832050
vt 0.250000 0.750000
# vertex 32
v -6.000000 6.000000 40.000000
vn -0.554700 0.000000 0.832050
vt 0.000000 1.000000
f 29/29/29 31/31/31 30/30/30
f 31/31/31 32/32/32 30/30/30
g mat4model0surf8
# SURFACETYPE MST_PLANAR
# vertex 33
v 6.000000 -6.000000 40.000000
vn 0.000000 -0.554700 0.832050
vt 1.000000 0.000000
# vertex 34
v -6.000000 -6.000000 40.000000
vn 0.000000 -0.554700 0.832050
vt 0.000000 0.000000
# vertex 35
v 3.000000 -3.000000 42.000000
vn 0.000000 -0.554700 0.832050
vt 0.750000 0.250000
# vertex 36
v -3.000000 -3.000000 42.000000
vn 0.000000 -0.554700 0.832050
vt 0.250000 0.250000
f 33/33/33 35/35/35 34/34/34
f 35/35/35 36/36/36 34/34/34
g mat2model0surf9
# SURFACETYPE MST_PLANAR
usemtl textures/egyptsoc_trim/032-06a
# vertex 37
v 10.000000 10.000000 0.000000
vn 1.000000 0.000000 0.000000
vt 1.000000 0.000000
# vertex 38
v 10.000000 -10.000000 0.000000
vn 1.000000 0.000000 0.000000
vt 0.000000 0.000000
# vertex 39
v 10.000000 10.000000 3.000000
vn 1.000000 0.000000 0.000000
vt 1.000000 1.000000
# vertex 40
v 10.000000 -10.000000 3.000000
vn 1.000000 0.000000 0.000000
vt 0.000000 1.000000
f 37/37/37 39/39/39 38/38/38
f 39/39/39 40/40/40 38/38/38
g mat2model0surf10
# SURFACETYPE MST_PLANAR
# vertex 41
v -10.000000 10.000000 3.000000
vn 0.000000 1.000000 0.000000
vt 0.000000 1.000000
# vertex 42
v -10.000000 10.000000 0.000000
vn 0.000000 1.000000 0.000000
vt 0.000000 0.000000
# vertex 43
v 10.000000 10.000000 3.000000
vn 0.000000 1.000000 0.000000
vt 1.000000 1.000000
# vertex 44
v 10.000000 10.000000 0.000000
vn 0.000000 1.000000 0.000000
vt 1.000000 0.000000
f 41/41/41 43/43/43 42/42/42
f 43/43/43 44/44/44 42/42/42
g mat2model0surf11
# SURFACETYPE MST_PLANAR
# vertex 45
v 10.000000 -10.000000 0.000000
vn 0.000000 -1.000000 0.000000
vt 1.000000 0.000000
# vertex 46
v -10.000000 -10.000000 0.000000
vn 0.000000 -1.000000 0.000000
vt 0.000000 0.000000
# vertex 47
v 10.000000 -10.000000 3.000000
vn 0.000000 -1.000000 0.000000
vt 1.000000 1.000000
# vertex 48
v -10.000000 -10.000000 3.000000
vn 0.000000 -1.000000 0.000000
vt 0.000000 1.000000
f 45/45/45 47/47/47 46/46/46
f 47/47/47 48/48/48 46/46/46
g mat2model0surf12
# SURFACETYPE MST_PLANAR
# vertex 49
v -10.000000 -10.000000 3.000000
vn -1.000000 0.000000 0.000000
vt 0.000000 1.000000
# vertex 50
v -10.000000 -10.000000 0.000000
vn -1.000000 0.000000 0.000000
vt 0.000000 0.000000
# vertex 51
v -10.000000 10.000000 3.000000
vn -1.000000 0.000000 0.000000
vt 1.000000 1.000000
# vertex 52
v -10.000000 10.000000 0.000000
vn -1.000000 0.000000 0.000000
vt 1.000000 0.000000
f 49/49/49 51/51/51 50/50/50
f 51/51/51 52/52/52 50/50/50
g mat0model0surf13
# SURFACETYPE MST_PLANAR
usemtl textures/egyptsoc_trim/s128-01a
# vertex 53
v 10.000000 10.000000 3.000000
vn 0.000000 0.000000 1.000000
vt 1.000000 1.000000
# vertex 54
v 6.000000 -6.000000 3.000000
vn 0.000000 0.000000 1.000000
vt 0.800000 0.200000
# vertex 55
v 6.000000 6.000000 3.000000
vn 0.000000 0.000000 1.000000
vt 0.800000 0.800000
# vertex 56
v 10.000000 -10.000000 3.000000
vn 0.000000 0.000000 1.000000
vt 1.000000 0.000000
# vertex 57
v -10.000000 10.000000 3.000000
vn 0.000000 0.000000 1.000000
vt 0.000000 1.000000
# vertex 58
v -6.000000 6.000000 3.000000
vn 0.000000 0.000000 1.000000
vt 0.200000 0.800000
# vertex 59
v -10.000000 -10.000000 3.000000
vn 0.000000 0.000000 1.000000
vt 0.000000 0.000000
# vertex 60
v -6.000000 -6.000000 3.000000
vn 0.000000 0.000000 1.000000
vt 0.200000 0.200000
f 53/53/53 55/55/55 54/54/54
f 53/53/53 54/54/54 56/56/56
f 53/53/53 57/57/57 55/55/55
f 54/54/54 59/59/59 56/56/56
f 55/55/55 57/57/57 58/58/58
f 54/54/54 60/60/60 59/59/59
f 58/58/58 59/59/59 60/60/60
f 57/57/57 59/59/59 58/58/58
g mat0model0surf14
# SURFACETYPE MST_PLANAR
# vertex 61
v -10.000000 10.000000 0.000000
vn 0.000000 0.000000 -1.000000
vt 0.000000 1.000000
# vertex 62
v -10.000000 -10.000000 0.000000
vn 0.000000 0.000000 -1.000000
vt 0.000000 0.000000
# vertex 63
v 10.000000 10.000000 0.000000
vn 0.000000 0.000000 -1.000000
vt 1.000000 1.000000
# vertex 64
v 10.000000 -10.000000 0.000000
vn 0.000000 0.000000 -1.000000
vt 1.000000 0.000000
f 61/61/61 63/63/63 62/62/62
f 63/63/63 64/64/64 62/62/62
