# Wavefront OBJ file
# Exported by Misfit Model 3D 1.3.8
# Mon Aug 19 17:20:32 2013

mtllib Desk_001.mtl

# 158 Vertices
v 62.0 32.0 26.0
v 62.0 32.0 -26.0
v -62.0 32.0 -26.0
v -62.0 32.0 26.0
v 62.0 31.0 -26.0
v 62.0 31.0 26.0
v -62.0 31.0 26.0
v -62.0 31.0 -26.0
v 62.0 30.0 -26.0
v 62.0 30.0 26.0
v -62.0 30.0 26.0
v -62.0 30.0 -26.0
v -56.0 0.0 28.0
v -56.0 24.0 28.0
v -64.0 24.0 28.0
v -64.0 0.0 28.0
v -56.0 24.0 20.0
v -56.0 0.0 20.0
v -64.0 0.0 20.0
v -64.0 24.0 20.0
v -64.0 30.0 -28.0
v -64.0 30.0 28.0
v -62.0 24.0 -26.0
v -62.0 24.0 26.0
v -64.0 24.0 -28.0
v -64.0 28.0 -28.0
v -64.0 28.0 28.0
v -62.0 28.0 -26.0
v -62.0 28.0 26.0
v -56.0 0.0 -20.0
v -56.0 24.0 -20.0
v -64.0 24.0 -20.0
v -64.0 0.0 -20.0
v -56.0 24.0 -28.0
v -56.0 -0.0 -28.0
v -64.0 -0.0 -28.0
v -36.0 28.0 -28.0
v -36.0 24.0 -28.0
v -32.0 24.0 -26.0
v -32.0 28.0 -26.0
v 32.0 28.0 26.0
v 32.0 20.0 26.0
v 56.0 20.0 26.0
v 56.0 28.0 26.0
v 56.0 20.0 -24.0
v 32.0 20.0 -24.0
v 32.0 28.0 -24.0
v 56.0 28.0 -24.0
v 64.0 24.0 -20.0
v 56.0 24.0 -20.0
v 56.0 0.0 -20.0
v 64.0 0.0 -20.0
v 64.0 -0.0 -28.0
v 64.0 28.0 -28.0
v 56.0 -0.0 -28.0
v 56.0 28.0 -28.0
v 56.0 30.0 -26.0
v 56.0 28.0 -26.0
v 32.0 28.0 -26.0
v 32.0 30.0 -26.0
v 32.0 30.0 26.0
v 64.0 24.0 20.0
v 56.0 24.0 20.0
v 56.0 0.0 28.0
v 64.0 0.0 28.0
v 64.0 28.0 28.0
v 56.0 28.0 28.0
v 64.0 0.0 20.0
v 56.0 0.0 20.0
v 56.0 28.0 24.0
v -58.0 30.0 30.0
v -66.0 30.0 30.0
v -66.0 28.0 30.0
v -58.0 28.0 30.0
v -56.0 30.0 28.0
v -56.0 28.0 28.0
v -59.0 0.0 29.0
v -59.0 28.0 29.0
v -61.0 28.0 29.0
v -61.0 0.0 29.0
v -59.0 0.0 28.0
v -59.0 28.0 28.0
v -61.0 28.0 28.0
v -61.0 0.0 28.0
v -66.0 30.0 -30.0
v -66.0 28.0 -30.0
v 66.0 30.0 -30.0
v 66.0 28.0 -30.0
v 64.0 30.0 -28.0
v 40.0 27.0 29.0
v 41.0 27.0 28.0
v 41.0 27.0 26.0
v 40.0 27.0 26.0
v 40.0 26.0 26.0
v 41.0 26.0 26.0
v 41.0 26.0 28.0
v 40.0 26.0 29.0
v 48.0 27.0 29.0
v 47.0 27.0 28.0
v 48.0 26.0 29.0
v 47.0 26.0 28.0
v 48.0 27.0 26.0
v 47.0 27.0 26.0
v 48.0 26.0 26.0
v 47.0 26.0 26.0
v 66.0 30.0 30.0
v 58.0 30.0 30.0
v 58.0 28.0 30.0
v 66.0 28.0 30.0
v 64.0 30.0 28.0
v 56.0 30.0 28.0
v 61.0 0.0 29.0
v 61.0 28.0 29.0
v 59.0 28.0 29.0
v 59.0 0.0 29.0
v 61.0 0.0 28.0
v 61.0 28.0 28.0
v 59.0 28.0 28.0
v 59.0 0.0 28.0
v 32.0 24.0 -24.0
v 32.0 24.0 -20.0
v -32.0 24.0 -20.0
v -32.0 24.0 -24.0
v -32.0 28.0 26.0
v 64.0 32.0 28.0
v -64.0 32.0 28.0
v -32.0 24.0 26.0
v -58.0 24.0 26.0
v -58.0 24.0 -24.0
v -32.0 28.347826 26.0
v 62.0 28.0 26.0
v -64.0 32.0 -28.0
v 62.0 28.0 -26.0
v 64.0 32.0 -28.0
v -32.0 24.0 28.0
v -32.0 28.0 28.0
v -56.0 28.0 -24.0
v -56.0 10.0 -24.0
v 56.0 10.0 -24.0
v -56.0 10.0 -26.0
v 56.0 10.0 -26.0
v -56.0 28.0 -26.0
v -58.0 24.0 -20.0
v -58.0 24.0 20.0
v -58.0 4.0 20.0
v -58.0 4.0 -20.0
v -62.0 4.0 -20.0
v -62.0 4.0 20.0
v -62.0 24.0 20.0
v -62.0 24.0 -20.0
v 62.0 24.0 -20.0
v 62.0 24.0 20.0
v 62.0 4.0 20.0
v 62.0 4.0 -20.0
v 58.0 4.0 -20.0
v 58.0 4.0 20.0
v 58.0 24.0 20.0
v 58.0 24.0 -20.0

# 654 Texture Coordinates
vt 0.96875 0.03125
vt 0.96875 0.84375
vt -0.96875 0.84375
vt 0.96875 0.03125
vt -0.96875 0.84375
vt -0.96875 0.03125
vt 0.96875 0.84375
vt 0.96875 0.03125
vt -0.96875 0.03125
vt 0.96875 0.84375
vt -0.96875 0.03125
vt -0.96875 0.84375
vt 0.96875 0.84375
vt 0.96875 0.03125
vt -0.96875 0.03125
vt 0.96875 0.84375
vt -0.96875 0.03125
vt -0.96875 0.84375
vt -0.875 0.375
vt -0.875 0.0
vt -1.0 0.0
vt -0.875 0.375
vt -1.0 0.0
vt -1.0 0.375
vt 0.875 0.0
vt 1.0 0.0
vt 1.0 0.375
vt 0.875 0.0
vt 1.0 0.375
vt 0.875 0.375
vt -0.875 0.125
vt -0.875 0.0
vt -1.0 0.0
vt -0.875 0.125
vt -1.0 0.0
vt -1.0 0.125
vt 1.0 0.375
vt 1.0 0.0
vt 0.875 0.0
vt 1.0 0.375
vt 0.875 0.0
vt 0.875 0.375
vt -1.0 0.0
vt -0.875 0.0
vt -0.875 0.375
vt -1.0 0.0
vt -0.875 0.375
vt -1.0 0.375
vt -1.0 0.875
vt -0.96875 0.84375
vt -0.96875 0.03125
vt -1.0 0.875
vt -0.96875 0.03125
vt -1.0 0.0
vt -0.96875 0.84375
vt -0.96875 0.03125
vt -1.0 0.0
vt -0.96875 0.84375
vt -1.0 0.0
vt -1.0 0.875
vt 0.125 -0.0625
vt 0.125 0.0
vt 1.0 0.0
vt 0.125 -0.0625
vt 1.0 0.0
vt 1.0 -0.0625
vt -0.96875 0.84375
vt -1.0 0.875
vt -1.0 0.0
vt -0.96875 0.84375
vt -1.0 0.0
vt -0.96875 0.03125
vt -0.875 0.375
vt -0.875 0.0
vt -1.0 0.0
vt -0.875 0.375
vt -1.0 0.0
vt -1.0 0.375
vt 0.125 0.0
vt 0.25 0.0
vt 0.25 0.375
vt 0.125 0.0
vt 0.25 0.375
vt 0.125 0.375
vt -0.875 0.875
vt -0.875 0.75
vt -1.0 0.75
vt -0.875 0.875
vt -1.0 0.75
vt -1.0 0.875
vt 0.25 0.375
vt 0.25 0.0
vt 0.125 0.0
vt 0.25 0.375
vt 0.125 0.0
vt 0.125 0.375
vt -1.0 0.0
vt -0.875 0.0
vt -0.875 0.375
vt -1.0 0.0
vt -0.875 0.375
vt -1.0 0.375
vt -1.0 -0.0625
vt -0.5625 -0.0625
vt -0.5625 0.0
vt -1.0 -0.0625
vt -0.5625 0.0
vt -1.0 0.0
vt -0.5625 0.875
vt -0.5 0.84375
vt -0.96875 0.84375
vt -0.5625 0.875
vt -0.96875 0.84375
vt -1.0 0.875
vt -0.5625 0.0
vt -0.5625 -0.0625
vt -0.5 -0.0625
vt -0.5625 0.0
vt -0.5 -0.0625
vt -0.5 0.0
vt 0.5 -0.0625
vt 0.5 0.0625
vt 0.875 0.0625
vt 0.5 -0.0625
vt 0.875 0.0625
vt 0.875 -0.0625
vt 0.875 0.8125
vt 0.875 0.03125
vt 0.5 0.03125
vt 0.875 0.8125
vt 0.5 0.03125
vt 0.5 0.8125
vt 0.1875 -0.0625
vt 0.1875 0.0625
vt 0.96875 0.0625
vt 0.1875 -0.0625
vt 0.96875 0.0625
vt 0.96875 -0.0625
vt 0.1875 0.0625
vt 0.1875 -0.0625
vt 0.96875 -0.0625
vt 0.1875 0.0625
vt 0.96875 -0.0625
vt 0.96875 0.0625
vt 1.0 0.0
vt 0.875 0.0
vt 0.875 0.375
vt 1.0 0.0
vt 0.875 0.375
vt 1.0 0.375
vt 0.1875 -0.0625
vt 0.25 0.0
vt 0.25 0.375
vt 0.1875 -0.0625
vt 0.25 0.375
vt 0.125 0.375
vt 0.875 0.75
vt 0.875 0.875
vt 1.0 0.875
vt 0.875 0.75
vt 1.0 0.875
vt 1.0 0.75
vt 0.25 0.0
vt 0.1875 -0.0625
vt 0.125 -0.0625
vt 0.25 0.0
vt 0.125 -0.0625
vt 0.125 0.375
vt 0.25 0.0
vt 0.125 0.375
vt 0.25 0.375
vt 1.0 0.375
vt 0.875 0.375
vt 0.875 -0.0625
vt 1.0 0.375
vt 0.875 -0.0625
vt 1.0 -0.0625
vt 0.875 -0.09375
vt 0.875 -0.0625
vt 0.5 -0.0625
vt 0.875 -0.09375
vt 0.5 -0.0625
vt 0.5 -0.09375
vt 0.5 0.03125
vt 0.875 0.84375
vt 0.5 0.84375
vt 0.25 0.0
vt 0.9375 -0.0625
vt 0.875 0.0
vt 0.875 0.75
vt 1.0 0.75
vt 1.0 0.125
vt 0.875 0.75
vt 1.0 0.125
vt 0.875 0.125
vt 0.875 0.375
vt 1.0 0.375
vt 1.0 -0.0625
vt 0.875 0.375
vt 1.0 -0.0625
vt 0.875 -0.0625
vt 1.0 -0.0625
vt 1.0 0.375
vt 0.875 0.375
vt 1.0 -0.0625
vt 0.875 0.375
vt 0.875 0.0
vt 1.0 -0.0625
vt 0.875 0.0
vt 0.9375 -0.0625
vt 0.875 0.125
vt 1.0 0.125
vt 1.0 0.0
vt 0.875 0.125
vt 1.0 0.0
vt 0.875 0.0
vt 0.875 0.375
vt 1.0 0.375
vt 1.0 -0.0625
vt 0.875 0.375
vt 1.0 -0.0625
vt 0.9375 -0.0625
vt 0.875 0.375
vt 0.9375 -0.0625
vt 0.875 0.0
vt 0.875 0.375
vt 0.875 0.0
vt 1.0 0.0
vt 0.875 0.375
vt 1.0 0.0
vt 1.0 0.375
vt 0.96875 0.03125
vt 0.96875 0.84375
vt 0.875 0.84375
vt 0.96875 0.03125
vt 0.875 0.84375
vt 0.875 0.03125
vt 0.242188 0.007812
vt 0.242188 0.210938
vt -0.242188 0.210938
vt 0.242188 0.007812
vt -0.242188 0.210938
vt -0.242188 0.007812
vt -0.226562 -0.023438
vt -0.257812 -0.023438
vt -0.257812 -0.015625
vt -0.226562 -0.023438
vt -0.257812 -0.015625
vt -0.226562 -0.015625
vt -0.21875 0.0
vt -0.25 0.0
vt -0.257812 -0.007812
vt -0.21875 0.0
vt -0.257812 -0.007812
vt -0.226562 -0.007812
vt -0.25 0.0
vt -0.21875 0.0
vt -0.226562 -0.007812
vt -0.25 0.0
vt -0.226562 -0.007812
vt -0.257812 -0.007812
vt 1.0 -0.023438
vt 1.007812 -0.023438
vt 1.007812 -0.015625
vt 1.0 -0.023438
vt 1.007812 -0.015625
vt 1.0 -0.015625
vt -0.230469 0.09375
vt -0.230469 -0.015625
vt -0.238281 -0.015625
vt -0.230469 0.09375
vt -0.238281 -0.015625
vt -0.238281 0.09375
vt 1.0 0.09375
vt 1.0 -0.015625
vt 1.003906 -0.015625
vt 1.0 0.09375
vt 1.003906 -0.015625
vt 1.003906 0.09375
vt 1.003906 0.09375
vt 1.003906 -0.015625
vt 1.0 -0.015625
vt 1.003906 0.09375
vt 1.0 -0.015625
vt 1.0 0.09375
vt 1.007812 -0.023438
vt 0.773438 -0.023438
vt 0.773438 -0.015625
vt 1.007812 -0.023438
vt 0.773438 -0.015625
vt 1.007812 -0.015625
vt -0.257812 0.226562
vt -0.257812 -0.007812
vt -0.25 0.0
vt -0.257812 0.226562
vt -0.25 0.0
vt -0.25 0.21875
vt -0.25 0.21875
vt -0.25 0.0
vt -0.257812 -0.007812
vt -0.25 0.21875
vt -0.257812 -0.007812
vt -0.257812 0.226562
vt -0.257812 -0.023438
vt 0.257812 -0.023438
vt 0.257812 -0.015625
vt -0.257812 -0.023438
vt 0.257812 -0.015625
vt -0.257812 -0.015625
vt -0.257812 0.226562
vt -0.25 0.21875
vt 0.25 0.21875
vt -0.257812 0.226562
vt 0.25 0.21875
vt 0.257812 0.226562
vt -0.25 0.21875
vt -0.257812 0.226562
vt 0.257812 0.226562
vt -0.25 0.21875
vt 0.257812 0.226562
vt 0.25 0.21875
vt 0.15625 -0.003906
vt 0.160156 0.0
vt 0.160156 0.007812
vt 0.15625 -0.003906
vt 0.160156 0.007812
vt 0.15625 0.007812
vt 0.15625 0.007812
vt 0.160156 0.007812
vt 0.160156 0.0
vt 0.15625 0.007812
vt 0.160156 0.0
vt 0.15625 -0.003906
vt 1.003906 -0.007812
vt 1.003906 -0.011719
vt 0.992188 -0.011719
vt 1.003906 -0.007812
vt 0.992188 -0.011719
vt 0.992188 -0.007812
vt 0.992188 -0.007812
vt 0.992188 -0.011719
vt 1.0 -0.011719
vt 0.992188 -0.007812
vt 1.0 -0.011719
vt 1.0 -0.007812
vt 0.1875 -0.003906
vt 0.183594 0.0
vt 0.160156 0.0
vt 0.1875 -0.003906
vt 0.160156 0.0
vt 0.15625 -0.003906
vt 0.1875 -0.011719
vt 0.15625 -0.011719
vt 0.15625 -0.007812
vt 0.1875 -0.011719
vt 0.15625 -0.007812
vt 0.1875 -0.007812
vt 0.183594 0.0
vt 0.1875 -0.003906
vt 0.15625 -0.003906
vt 0.183594 0.0
vt 0.15625 -0.003906
vt 0.160156 0.0
vt 0.160156 -0.007812
vt 0.160156 -0.011719
vt 0.183594 -0.011719
vt 0.160156 -0.007812
vt 0.183594 -0.011719
vt 0.183594 -0.007812
vt 0.183594 0.0
vt 0.1875 -0.003906
vt 0.1875 0.007812
vt 0.183594 0.0
vt 0.1875 0.007812
vt 0.183594 0.007812
vt 0.992188 -0.007812
vt 0.992188 -0.011719
vt 1.003906 -0.011719
vt 0.992188 -0.007812
vt 1.003906 -0.011719
vt 1.003906 -0.007812
vt 0.183594 0.007812
vt 0.1875 0.007812
vt 0.1875 -0.003906
vt 0.183594 0.007812
vt 0.1875 -0.003906
vt 0.183594 0.0
vt 1.0 -0.007812
vt 1.0 -0.011719
vt 0.992188 -0.011719
vt 1.0 -0.007812
vt 0.992188 -0.011719
vt 0.992188 -0.007812
vt 0.257812 -0.023438
vt 0.226562 -0.023438
vt 0.226562 -0.015625
vt 0.257812 -0.023438
vt 0.226562 -0.015625
vt 0.257812 -0.015625
vt 0.25 0.0
vt 0.21875 0.0
vt 0.226562 -0.007812
vt 0.25 0.0
vt 0.226562 -0.007812
vt 0.257812 -0.007812
vt 0.21875 0.0
vt 0.25 0.0
vt 0.257812 -0.007812
vt 0.21875 0.0
vt 0.257812 -0.007812
vt 0.226562 -0.007812
vt 1.0 -0.015625
vt 1.007812 -0.015625
vt 1.007812 -0.023438
vt 1.0 -0.015625
vt 1.007812 -0.023438
vt 1.0 -0.023438
vt 0.238281 0.09375
vt 0.238281 -0.015625
vt 0.230469 -0.015625
vt 0.238281 0.09375
vt 0.230469 -0.015625
vt 0.230469 0.09375
vt 1.0 0.09375
vt 1.0 -0.015625
vt 1.003906 -0.015625
vt 1.0 0.09375
vt 1.003906 -0.015625
vt 1.003906 0.09375
vt 1.003906 0.09375
vt 1.003906 -0.015625
vt 1.0 -0.015625
vt 1.003906 0.09375
vt 1.0 -0.015625
vt 1.0 0.09375
vt 0.773438 -0.023438
vt 1.007812 -0.023438
vt 1.007812 -0.015625
vt 0.773438 -0.023438
vt 1.007812 -0.015625
vt 0.773438 -0.015625
vt 0.25 0.0
vt 0.257812 -0.007812
vt 0.257812 0.226562
vt 0.25 0.0
vt 0.257812 0.226562
vt 0.25 0.21875
vt 0.257812 0.226562
vt 0.257812 -0.007812
vt 0.25 0.0
vt 0.257812 0.226562
vt 0.25 0.0
vt 0.25 0.21875
vt 0.5 0.8125
vt 0.5 0.75
vt -0.5 0.75
vt 0.5 0.8125
vt -0.5 0.75
vt -0.5 0.8125
vt 0.5 0.75
vt 0.5 0.03125
vt -0.5 0.03125
vt 0.5 0.75
vt -0.5 0.03125
vt -0.5 0.75
vt 1.0 0.0
vt 0.96875 0.03125
vt -0.96875 0.03125
vt 1.0 0.0
vt -0.96875 0.03125
vt -1.0 0.0
vt 1.0 -0.09375
vt 1.0 -0.125
vt -1.0 -0.125
vt 1.0 -0.09375
vt -1.0 -0.125
vt -1.0 -0.09375
vt -0.96875 -0.09375
vt -0.96875 -0.125
vt 0.96875 -0.125
vt -0.96875 -0.09375
vt 0.96875 -0.125
vt 0.96875 -0.09375
vt -0.5 0.03125
vt -0.90625 0.03125
vt -0.90625 0.8125
vt -0.5 0.03125
vt -0.90625 0.8125
vt -0.5 0.8125
vt 0.96875 -0.067935
vt 0.96875 0.0
vt 0.1875 0.0
vt 1.0 -0.0625
vt 1.0 -0.09375
vt -1.0 -0.09375
vt 1.0 -0.0625
vt -1.0 -0.09375
vt -1.0 -0.0625
vt 0.96875 0.03125
vt 1.0 0.0
vt -1.0 0.0
vt 0.96875 0.03125
vt -1.0 0.0
vt -0.96875 0.03125
vt -0.96875 0.03125
vt -0.96875 0.84375
vt -1.0 0.875
vt -0.96875 0.03125
vt -1.0 0.875
vt -1.0 0.0
vt 1.0 -0.125
vt 0.125 -0.125
vt 0.125 -0.09375
vt 1.0 -0.125
vt 0.125 -0.09375
vt 1.0 -0.09375
vt 0.15625 -0.109375
vt 0.15625 -0.125
vt 0.96875 -0.125
vt 0.15625 -0.109375
vt 0.96875 -0.125
vt 0.96875 -0.109375
vt 1.0 0.875
vt 0.96875 0.84375
vt -0.96875 0.84375
vt 1.0 0.875
vt -0.96875 0.84375
vt -1.0 0.875
vt 0.96875 0.84375
vt 1.0 0.875
vt -1.0 0.875
vt 0.96875 0.84375
vt -1.0 0.875
vt -0.96875 0.84375
vt -1.0 -0.09375
vt -1.0 -0.125
vt 1.0 -0.125
vt -1.0 -0.09375
vt 1.0 -0.125
vt 1.0 -0.09375
vt 0.96875 -0.125
vt -0.96875 -0.125
vt -0.96875 -0.09375
vt 0.96875 -0.125
vt -0.96875 -0.09375
vt 0.96875 -0.09375
vt 0.125 -0.09375
vt 0.125 -0.125
vt 1.0 -0.125
vt 0.125 -0.09375
vt 1.0 -0.125
vt 1.0 -0.09375
vt 0.96875 0.03125
vt 1.0 0.0
vt 1.0 0.875
vt 0.96875 0.03125
vt 1.0 0.875
vt 0.96875 0.84375
vt 0.96875 -0.125
vt 0.15625 -0.125
vt 0.15625 -0.109375
vt 0.96875 -0.125
vt 0.15625 -0.109375
vt 0.96875 -0.109375
vt -0.96875 -0.0625
vt -0.96875 -0.09375
vt 0.96875 -0.09375
vt -0.96875 -0.0625
vt 0.96875 -0.09375
vt 0.96875 -0.0625
vt -1.0 -0.0625
vt -1.0 0.0
vt -0.5 0.0
vt -1.0 -0.0625
vt -0.5 0.0
vt -0.5 -0.0625
vt -0.96875 0.03125
vt -0.5 0.03125
vt -0.5 0.0
vt -0.96875 0.03125
vt -0.5 0.0
vt -1.0 0.0
vt 1.0 -0.0625
vt 1.0 0.0
vt 0.96875 0.0
vt 1.0 -0.0625
vt 0.96875 0.0
vt 0.96875 -0.0625
vt -0.875 -0.0625
vt -0.875 0.21875
vt 0.875 0.21875
vt -0.875 -0.0625
vt 0.875 0.21875
vt 0.875 -0.0625
vt -0.875 0.84375
vt 0.875 0.84375
vt 0.875 0.8125
vt -0.875 0.84375
vt 0.875 0.8125
vt -0.875 0.8125
vt -0.875 0.21875
vt -0.875 -0.0625
vt 0.875 -0.0625
vt -0.875 0.21875
vt 0.875 -0.0625
vt 0.875 0.21875
vt 0.25 0.0
vt 0.875 0.0
vt 0.875 0.3125
vt 0.25 0.0
vt 0.875 0.3125
vt 0.25 0.3125
vt -0.96875 0.75
vt -0.90625 0.75
vt -0.90625 0.125
vt -0.96875 0.75
vt -0.90625 0.125
vt -0.96875 0.125
vt 0.875 0.0
vt 0.25 0.0
vt 0.25 0.3125
vt 0.875 0.0
vt 0.25 0.3125
vt 0.875 0.3125
vt -0.953125 0.0
vt -0.921875 0.0
vt -0.921875 -0.015625
vt -0.953125 0.0
vt -0.921875 -0.015625
vt -0.953125 -0.015625
vt 0.25 0.0
vt 0.875 0.0
vt 0.875 0.3125
vt 0.25 0.0
vt 0.875 0.3125
vt 0.25 0.3125
vt 0.90625 0.75
vt 0.96875 0.75
vt 0.96875 0.125
vt 0.90625 0.75
vt 0.96875 0.125
vt 0.90625 0.125
vt 0.875 0.0
vt 0.25 0.0
vt 0.25 0.3125
vt 0.875 0.0
vt 0.25 0.3125
vt 0.875 0.3125
vt 0.921875 0.0
vt 0.953125 0.0
vt 0.953125 -0.015625
vt 0.921875 0.0
vt 0.953125 -0.015625
vt 0.921875 -0.015625

# 654 Vertex Normals
vn 0.0 1.0 0.0
vn 0.0 1.0 0.0
vn 0.0 1.0 0.0
vn 0.0 1.0 0.0
vn 0.0 1.0 0.0
vn 0.0 1.0 0.0
vn 0.0 -1.0 0.0
vn 0.0 -1.0 0.0
vn 0.229753 -0.973249 0.0
vn 0.0 -1.0 0.0
vn 0.229753 -0.973249 0.0
vn 0.229753 -0.973249 0.0
vn 0.0 -1.0 0.0
vn 0.0 -1.0 0.0
vn 0.0 -1.0 0.0
vn 0.0 -1.0 0.0
vn 0.0 -1.0 0.0
vn 0.0 -1.0 0.0
vn 0.0 0.0 1.0
vn 0.0 0.0 1.0
vn 0.0 0.0 1.0
vn 0.0 0.0 1.0
vn 0.0 0.0 1.0
vn 0.0 0.0 1.0
vn 1.0 0.0 0.0
vn 1.0 0.0 0.0
vn 1.0 0.0 0.0
vn 1.0 0.0 0.0
vn 1.0 0.0 0.0
vn 1.0 0.0 0.0
vn 0.0 -1.0 0.0
vn 0.0 -1.0 0.0
vn 0.0 -1.0 0.0
vn 0.0 -1.0 0.0
vn 0.0 -1.0 0.0
vn 0.0 -1.0 0.0
vn -1.0 0.0 0.0
vn -1.0 0.0 0.0
vn -1.0 0.0 0.0
vn -1.0 0.0 0.0
vn -1.0 0.0 0.0
vn -1.0 0.0 0.0
vn 0.0 0.0 -1.0
vn 0.0 0.0 -1.0
vn 0.0 0.0 -1.0
vn 0.0 0.0 -1.0
vn 0.0 0.0 -1.0
vn 0.0 0.0 -1.0
vn 0.447214 -0.894427 0.0
vn 0.790753 -0.612135 0.0
vn 0.447214 -0.894427 0.0
vn 0.447214 -0.894427 0.0
vn 0.447214 -0.894427 0.0
vn 0.447214 -0.894427 0.0
vn 0.0 -1.0 0.0
vn 0.0 -1.0 0.0
vn 0.0 -1.0 0.0
vn 0.0 -1.0 0.0
vn 0.0 -1.0 0.0
vn 0.0 -1.0 0.0
vn -1.0 0.0 0.0
vn -1.0 0.0 0.0
vn -1.0 0.0 0.0
vn -1.0 0.0 0.0
vn -1.0 0.0 0.0
vn -1.0 0.0 0.0
vn 0.0 1.0 0.0
vn 0.0 1.0 0.0
vn 0.0 1.0 0.0
vn 0.0 1.0 0.0
vn 0.0 1.0 0.0
vn 0.0 1.0 0.0
vn 0.0 0.0 1.0
vn 0.0 0.0 1.0
vn 0.0 0.0 1.0
vn 0.0 0.0 1.0
vn 0.0 0.0 1.0
vn 0.0 0.0 1.0
vn 1.0 0.0 0.0
vn 1.0 0.0 0.0
vn 1.0 0.0 0.0
vn 1.0 0.0 0.0
vn 1.0 0.0 0.0
vn 1.0 0.0 0.0
vn 0.0 -1.0 0.0
vn 0.0 -1.0 0.0
vn 0.0 -1.0 0.0
vn 0.0 -1.0 0.0
vn 0.0 -1.0 0.0
vn 0.0 -1.0 0.0
vn -1.0 0.0 0.0
vn -1.0 0.0 0.0
vn -1.0 0.0 0.0
vn -1.0 0.0 0.0
vn -1.0 0.0 0.0
vn -1.0 0.0 0.0
vn 0.0 0.0 -1.0
vn 0.0 0.0 -1.0
vn 0.0 0.0 -1.0
vn 0.0 0.0 -1.0
vn 0.0 0.0 -1.0
vn 0.0 0.0 -1.0
vn 0.0 0.0 -1.0
vn 0.229753 0.0 -0.973249
vn 0.229753 0.0 -0.973249
vn 0.0 0.0 -1.0
vn 0.229753 0.0 -0.973249
vn 0.0 0.0 -1.0
vn 0.0 -1.0 0.0
vn 0.0 -1.0 0.0
vn 0.0 -1.0 0.0
vn 0.0 -1.0 0.0
vn 0.0 -1.0 0.0
vn 0.0 -1.0 0.0
vn 0.229753 0.0 -0.973249
vn 0.229753 0.0 -0.973249
vn 0.447214 0.0 -0.894427
vn 0.229753 0.0 -0.973249
vn 0.447214 0.0 -0.894427
vn 0.447214 0.0 -0.894427
vn 0.0 -0.430853 0.902422
vn 0.0 0.0 1.0
vn 0.0 0.0 1.0
vn 0.0 -0.430853 0.902422
vn 0.0 0.0 1.0
vn 0.0 0.0 1.0
vn 0.0 -1.0 0.0
vn 0.0 -1.0 0.0
vn 0.0 -1.0 0.0
vn 0.0 -1.0 0.0
vn 0.0 -1.0 0.0
vn 0.0 -1.0 0.0
vn -1.0 0.0 0.0
vn -1.0 0.0 0.0
vn -1.0 0.0 0.0
vn -1.0 0.0 0.0
vn -1.0 0.0 0.0
vn -1.0 0.0 0.0
vn 1.0 0.0 0.0
vn 1.0 0.0 0.0
vn 1.0 0.0 0.0
vn 1.0 0.0 0.0
vn 1.0 0.0 0.0
vn 1.0 0.0 0.0
vn 0.0 0.0 1.0
vn 0.0 0.0 1.0
vn 0.0 0.0 1.0
vn 0.0 0.0 1.0
vn 0.0 0.0 1.0
vn 0.0 0.0 1.0
vn 1.0 0.0 0.0
vn 1.0 0.0 0.0
vn 1.0 0.0 0.0
vn 1.0 0.0 0.0
vn 1.0 0.0 0.0
vn 1.0 0.0 0.0
vn 0.0 -1.0 0.0
vn 0.0 -1.0 0.0
vn 0.0 -1.0 0.0
vn 0.0 -1.0 0.0
vn 0.0 -1.0 0.0
vn 0.0 -1.0 0.0
vn -1.0 0.0 0.0
vn -1.0 0.0 0.0
vn -1.0 0.0 0.0
vn -1.0 0.0 0.0
vn -1.0 0.0 0.0
vn -1.0 0.0 0.0
vn -1.0 0.0 0.0
vn -1.0 0.0 0.0
vn -1.0 0.0 0.0
vn 0.0 0.0 -1.0
vn 0.0 0.0 -1.0
vn 0.0 0.0 -1.0
vn 0.0 0.0 -1.0
vn 0.0 0.0 -1.0
vn 0.0 0.0 -1.0
vn 0.0 0.0 -1.0
vn 0.0 0.0 -1.0
vn 0.0 0.0 -1.0
vn 0.0 0.0 -1.0
vn 0.0 0.0 -1.0
vn 0.0 0.0 -1.0
vn 0.0 1.0 0.0
vn 0.0 1.0 0.0
vn 0.0 1.0 0.0
vn 1.0 0.0 0.0
vn 1.0 0.0 0.0
vn 1.0 0.0 0.0
vn 0.0 -1.0 0.0
vn 0.0 -1.0 0.0
vn 0.0 -1.0 0.0
vn 0.0 -1.0 0.0
vn 0.0 -1.0 0.0
vn 0.0 -1.0 0.0
vn 0.0 0.0 1.0
vn 0.0 0.0 1.0
vn 0.0 0.0 1.0
vn 0.0 0.0 1.0
vn 0.0 0.0 1.0
vn -0.505449 0.0 0.862856
vn 1.0 0.0 0.0
vn 1.0 0.0 0.0
vn 1.0 0.0 0.0
vn 1.0 0.0 0.0
vn 1.0 0.0 0.0
vn 1.0 0.0 0.0
vn 1.0 0.0 0.0
vn 1.0 0.0 0.0
vn 1.0 0.0 0.0
vn 0.0 -1.0 0.0
vn 0.0 -1.0 0.0
vn 0.0 -1.0 0.0
vn 0.0 -1.0 0.0
vn 0.0 -1.0 0.0
vn 0.0 -1.0 0.0
vn -1.0 0.0 0.0
vn -1.0 0.0 0.0
vn -0.92388 0.0 0.382683
vn -1.0 0.0 0.0
vn -0.92388 0.0 0.382683
vn -1.0 0.0 0.0
vn -1.0 0.0 0.0
vn -1.0 0.0 0.0
vn -1.0 0.0 0.0
vn 0.0 0.0 -1.0
vn 0.0 0.0 -1.0
vn 0.0 0.0 -1.0
vn 0.0 0.0 -1.0
vn 0.0 0.0 -1.0
vn 0.0 0.0 -1.0
vn 0.0 1.0 0.0
vn 0.0 1.0 0.0
vn 0.0 1.0 0.0
vn 0.0 1.0 0.0
vn 0.0 1.0 0.0
vn 0.0 1.0 0.0
vn 0.0 1.0 0.0
vn 0.0 1.0 0.0
vn 0.0 1.0 0.0
vn 0.0 1.0 0.0
vn 0.0 1.0 0.0
vn 0.0 1.0 0.0
vn 0.252725 0.0 0.967538
vn 0.0 0.0 1.0
vn 0.0 0.0 1.0
vn 0.252725 0.0 0.967538
vn 0.0 0.0 1.0
vn 0.505449 0.0 0.862856
vn 0.0 1.0 0.0
vn 0.0 1.0 0.0
vn 0.0 1.0 0.0
vn 0.0 1.0 0.0
vn 0.0 1.0 0.0
vn 0.0 1.0 0.0
vn 0.0 -1.0 0.0
vn 0.0 -1.0 0.0
vn 0.0 -1.0 0.0
vn 0.0 -1.0 0.0
vn 0.0 -1.0 0.0
vn 0.0 -1.0 0.0
vn 0.707107 0.0 0.707107
vn 0.252725 0.0 0.967538
vn 0.505449 0.0 0.862856
vn 0.707107 0.0 0.707107
vn 0.505449 0.0 0.862856
vn 0.707107 0.0 0.707107
vn 0.0 0.0 1.0
vn 0.0 0.0 1.0
vn 0.0 0.0 1.0
vn 0.0 0.0 1.0
vn 0.0 0.0 1.0
vn 0.0 0.0 1.0
vn 1.0 0.0 0.0
vn 1.0 0.0 0.0
vn 1.0 0.0 0.0
vn 1.0 0.0 0.0
vn 1.0 0.0 0.0
vn 1.0 0.0 0.0
vn -1.0 0.0 0.0
vn -1.0 0.0 0.0
vn -1.0 0.0 0.0
vn -1.0 0.0 0.0
vn -1.0 0.0 0.0
vn -1.0 0.0 0.0
vn -1.0 0.0 0.0
vn -1.0 0.0 0.0
vn -1.0 0.0 0.0
vn -1.0 0.0 0.0
vn -1.0 0.0 0.0
vn -1.0 0.0 0.0
vn 0.0 1.0 0.0
vn 0.0 1.0 0.0
vn 0.0 1.0 0.0
vn 0.0 1.0 0.0
vn 0.0 1.0 0.0
vn 0.0 1.0 0.0
vn 0.0 -1.0 0.0
vn 0.0 -1.0 0.0
vn 0.0 -1.0 0.0
vn 0.0 -1.0 0.0
vn 0.0 -1.0 0.0
vn 0.0 -1.0 0.0
vn 0.0 0.0 -1.0
vn 0.0 0.0 -1.0
vn 0.0 0.0 -1.0
vn 0.0 0.0 -1.0
vn 0.0 0.0 -1.0
vn 0.0 0.0 -1.0
vn 0.0 1.0 0.0
vn 0.0 1.0 0.0
vn 0.0 1.0 0.0
vn 0.0 1.0 0.0
vn 0.0 1.0 0.0
vn 0.0 1.0 0.0
vn 0.0 -1.0 0.0
vn 0.0 -1.0 0.0
vn 0.0 -1.0 0.0
vn 0.0 -1.0 0.0
vn 0.0 -1.0 0.0
vn 0.0 -1.0 0.0
vn 0.0 1.0 0.0
vn 0.0 1.0 0.0
vn 0.0 1.0 0.0
vn 0.0 1.0 0.0
vn 0.0 1.0 0.0
vn 0.0 1.0 0.0
vn 0.0 -1.0 0.0
vn 0.0 -1.0 0.0
vn 0.0 -1.0 0.0
vn 0.0 -1.0 0.0
vn 0.0 -1.0 0.0
vn 0.0 -1.0 0.0
vn -1.0 0.0 0.0
vn -1.0 0.0 0.0
vn -1.0 0.0 0.0
vn -1.0 0.0 0.0
vn -1.0 0.0 0.0
vn -1.0 0.0 0.0
vn 1.0 0.0 0.0
vn 1.0 0.0 0.0
vn 1.0 0.0 0.0
vn 1.0 0.0 0.0
vn 1.0 0.0 0.0
vn 1.0 0.0 0.0
vn 0.0 1.0 0.0
vn 0.0 1.0 0.0
vn 0.0 1.0 0.0
vn 0.0 1.0 0.0
vn 0.0 1.0 0.0
vn 0.0 1.0 0.0
vn 0.0 0.0 1.0
vn 0.0 0.0 1.0
vn 0.0 0.0 1.0
vn 0.0 0.0 1.0
vn 0.0 0.0 1.0
vn 0.0 0.0 1.0
vn 0.0 -1.0 0.0
vn 0.0 -1.0 0.0
vn 0.0 -1.0 0.0
vn 0.0 -1.0 0.0
vn 0.0 -1.0 0.0
vn 0.0 -1.0 0.0
vn 0.0 0.0 -1.0
vn 0.0 0.0 -1.0
vn 0.0 0.0 -1.0
vn 0.0 0.0 -1.0
vn 0.0 0.0 -1.0
vn 0.0 0.0 -1.0
vn 0.0 1.0 0.0
vn 0.0 1.0 0.0
vn 0.0 1.0 0.0
vn 0.0 1.0 0.0
vn 0.0 1.0 0.0
vn 0.0 1.0 0.0
vn 1.0 0.0 0.0
vn 1.0 0.0 0.0
vn 1.0 0.0 0.0
vn 1.0 0.0 0.0
vn 1.0 0.0 0.0
vn 1.0 0.0 0.0
vn 0.0 -1.0 0.0
vn 0.0 -1.0 0.0
vn 0.0 -1.0 0.0
vn 0.0 -1.0 0.0
vn 0.0 -1.0 0.0
vn 0.0 -1.0 0.0
vn -1.0 0.0 0.0
vn -1.0 0.0 0.0
vn -1.0 0.0 0.0
vn -1.0 0.0 0.0
vn -1.0 0.0 0.0
vn -1.0 0.0 0.0
vn 0.0 0.0 1.0
vn -0.505449 0.0 0.862856
vn -0.252725 0.0 0.967538
vn 0.0 0.0 1.0
vn -0.252725 0.0 0.967538
vn 0.0 0.0 1.0
vn 0.0 1.0 0.0
vn 0.0 1.0 0.0
vn 0.0 1.0 0.0
vn 0.0 1.0 0.0
vn 0.0 1.0 0.0
vn 0.0 1.0 0.0
vn 0.0 -1.0 0.0
vn 0.0 -1.0 0.0
vn 0.0 -1.0 0.0
vn 0.0 -1.0 0.0
vn 0.0 -1.0 0.0
vn 0.0 -1.0 0.0
vn -0.816497 0.0 0.57735
vn -0.252725 0.0 0.967538
vn -0.505449 0.0 0.862856
vn -0.816497 0.0 0.57735
vn -0.505449 0.0 0.862856
vn -0.707107 0.0 0.707107
vn 0.0 0.0 1.0
vn 0.0 0.0 1.0
vn 0.0 0.0 1.0
vn 0.0 0.0 1.0
vn 0.0 0.0 1.0
vn 0.0 0.0 1.0
vn 1.0 0.0 0.0
vn 1.0 0.0 0.0
vn 1.0 0.0 0.0
vn 1.0 0.0 0.0
vn 1.0 0.0 0.0
vn 1.0 0.0 0.0
vn -1.0 0.0 0.0
vn -1.0 0.0 0.0
vn -1.0 0.0 0.0
vn -1.0 0.0 0.0
vn -1.0 0.0 0.0
vn -1.0 0.0 0.0
vn 1.0 0.0 0.0
vn 1.0 0.0 0.0
vn 1.0 0.0 0.0
vn 1.0 0.0 0.0
vn 1.0 0.0 0.0
vn 1.0 0.0 0.0
vn 0.0 1.0 0.0
vn 0.0 1.0 0.0
vn 0.0 1.0 0.0
vn 0.0 1.0 0.0
vn 0.0 1.0 0.0
vn 0.0 1.0 0.0
vn 0.0 -1.0 0.0
vn 0.0 -1.0 0.0
vn 0.0 -1.0 0.0
vn 0.0 -1.0 0.0
vn 0.0 -1.0 0.0
vn 0.0 -1.0 0.0
vn 0.0 -1.0 0.0
vn 0.0 -0.998328 0.057801
vn 0.0 -0.999582 0.028901
vn 0.0 -1.0 0.0
vn 0.0 -0.999582 0.028901
vn 0.0 -1.0 0.0
vn 0.0 -0.998328 0.057801
vn 0.0 -0.430853 0.902422
vn 0.0 -0.996241 0.08663
vn 0.0 -0.998328 0.057801
vn 0.0 -0.996241 0.08663
vn 0.0 -0.999582 0.028901
vn 0.0 1.0 0.0
vn 0.0 1.0 0.0
vn 0.0 1.0 0.0
vn 0.0 1.0 0.0
vn 0.0 1.0 0.0
vn 0.0 1.0 0.0
vn 0.0 0.0 1.0
vn 0.0 0.0 1.0
vn 0.0 0.0 1.0
vn 0.0 0.0 1.0
vn 0.0 0.0 1.0
vn 0.0 0.0 1.0
vn 0.0 0.0 -1.0
vn 0.0 0.0 -1.0
vn 0.0 0.0 -1.0
vn 0.0 0.0 -1.0
vn 0.0 0.0 -1.0
vn 0.0 0.0 -1.0
vn 0.0 -1.0 0.0
vn 0.0 -1.0 0.0
vn 0.0 -1.0 0.0
vn 0.0 -1.0 0.0
vn 0.0 -1.0 0.0
vn 0.0 -1.0 0.0
vn 1.0 0.0 0.0
vn 1.0 0.0 0.0
vn 1.0 0.0 0.0
vn 0.0 0.0 1.0
vn 0.0 0.0 1.0
vn 0.0 0.0 1.0
vn 0.0 0.0 1.0
vn 0.0 0.0 1.0
vn 0.0 0.0 1.0
vn 0.0 -1.0 0.0
vn 0.0 -1.0 0.0
vn 0.0 -1.0 0.0
vn 0.0 -1.0 0.0
vn 0.0 -1.0 0.0
vn 0.0 -1.0 0.0
vn 0.0 1.0 0.0
vn 0.0 1.0 0.0
vn 0.0 1.0 0.0
vn 0.0 1.0 0.0
vn 0.0 1.0 0.0
vn 0.0 1.0 0.0
vn -1.0 0.0 0.0
vn -1.0 0.0 0.0
vn -1.0 0.0 0.0
vn -1.0 0.0 0.0
vn -1.0 0.0 0.0
vn -1.0 0.0 0.0
vn 0.939234 -0.343279 0.0
vn 1.0 0.0 0.0
vn 1.0 0.0 0.0
vn 0.939234 -0.343279 0.0
vn 1.0 0.0 0.0
vn 0.727076 -0.686557 0.0
vn 0.0 -1.0 0.0
vn 0.0 -1.0 0.0
vn 0.0 -1.0 0.0
vn 0.0 -1.0 0.0
vn 0.0 -1.0 0.0
vn 0.0 -1.0 0.0
vn 0.0 1.0 0.0
vn 0.0 1.0 0.0
vn 0.0 1.0 0.0
vn 0.0 1.0 0.0
vn 0.0 1.0 0.0
vn 0.0 1.0 0.0
vn 0.0 0.0 -1.0
vn 0.0 0.0 -1.0
vn 0.0 0.0 -1.0
vn 0.0 0.0 -1.0
vn 0.0 0.0 -1.0
vn 0.0 0.0 -1.0
vn 0.0 0.0 1.0
vn 0.0 0.0 1.0
vn 0.0 0.0 1.0
vn 0.0 0.0 1.0
vn 0.0 0.0 1.0
vn 0.0 0.0 1.0
vn 1.0 0.0 0.0
vn 1.0 0.0 0.0
vn 1.0 0.0 0.0
vn 1.0 0.0 0.0
vn 1.0 0.0 0.0
vn 1.0 0.0 0.0
vn 0.0 1.0 0.0
vn 0.0 1.0 0.0
vn 0.0 1.0 0.0
vn 0.0 1.0 0.0
vn 0.0 1.0 0.0
vn 0.0 1.0 0.0
vn -1.0 0.0 0.0
vn -1.0 0.0 0.0
vn -1.0 0.0 0.0
vn -1.0 0.0 0.0
vn -1.0 0.0 0.0
vn -1.0 0.0 0.0
vn 0.0 0.0 -1.0
vn 0.0 0.0 -1.0
vn 0.0 0.0 -1.0
vn 0.0 0.0 -1.0
vn 0.0 0.0 -1.0
vn 0.0 0.0 -1.0
vn 0.0 0.0 1.0
vn 0.0 0.0 1.0
vn 0.0 0.0 1.0
vn 0.0 0.0 1.0
vn 0.0 0.0 1.0
vn 0.0 0.0 1.0
vn 0.0 -1.0 0.0
vn 0.0 -1.0 0.0
vn 0.0 -1.0 0.0
vn 0.0 -1.0 0.0
vn 0.0 -1.0 0.0
vn 0.0 -1.0 0.0
vn 1.0 0.0 0.0
vn 1.0 0.0 0.0
vn 1.0 0.0 0.0
vn 1.0 0.0 0.0
vn 1.0 0.0 0.0
vn 1.0 0.0 0.0
vn 0.0 0.0 1.0
vn 0.0 0.0 1.0
vn 0.0 0.0 1.0
vn 0.0 0.0 1.0
vn 0.0 0.0 1.0
vn 0.0 0.0 1.0
vn 0.0 -1.0 0.0
vn 0.0 -1.0 0.0
vn 0.0 -1.0 0.0
vn 0.0 -1.0 0.0
vn 0.0 -1.0 0.0
vn 0.0 -1.0 0.0
vn 0.0 0.0 -1.0
vn 0.0 0.0 -1.0
vn 0.0 0.0 -1.0
vn 0.0 0.0 -1.0
vn 0.0 0.0 -1.0
vn 0.0 0.0 -1.0
vn 1.0 0.0 0.0
vn 1.0 0.0 0.0
vn 1.0 0.0 0.0
vn 1.0 0.0 0.0
vn 1.0 0.0 0.0
vn 1.0 0.0 0.0
vn 0.0 -1.0 0.0
vn 0.0 -1.0 0.0
vn 0.0 -1.0 0.0
vn 0.0 -1.0 0.0
vn 0.0 -1.0 0.0
vn 0.0 -1.0 0.0
vn -1.0 0.0 0.0
vn -1.0 0.0 0.0
vn -1.0 0.0 0.0
vn -1.0 0.0 0.0
vn -1.0 0.0 0.0
vn -1.0 0.0 0.0
vn 0.0 -1.0 0.0
vn 0.0 -1.0 0.0
vn 0.0 -1.0 0.0
vn 0.0 -1.0 0.0
vn 0.0 -1.0 0.0
vn 0.0 -1.0 0.0
vn 1.0 0.0 0.0
vn 1.0 0.0 0.0
vn 1.0 0.0 0.0
vn 1.0 0.0 0.0
vn 1.0 0.0 0.0
vn 1.0 0.0 0.0
vn 0.0 -1.0 0.0
vn 0.0 -1.0 0.0
vn 0.0 -1.0 0.0
vn 0.0 -1.0 0.0
vn 0.0 -1.0 0.0
vn 0.0 -1.0 0.0
vn -1.0 0.0 0.0
vn -1.0 0.0 0.0
vn -1.0 0.0 0.0
vn -1.0 0.0 0.0
vn -1.0 0.0 0.0
vn -1.0 0.0 0.0
vn 0.0 -1.0 0.0
vn 0.0 -1.0 0.0
vn 0.0 -1.0 0.0
vn 0.0 -1.0 0.0
vn 0.0 -1.0 0.0
vn 0.0 -1.0 0.0

# glass_blue, 2 grouped triangles

usemtl textures/glass/glass_blue
o glass_blue
g glass_blue

f 1/1/1 2/2/2 3/3/3
f 1/4/4 3/5/5 4/6/6
# White2, 77 grouped triangles

usemtl textures/Go/White
o White2
g White2

f 5/7/7 6/8/8 7/9/9
f 5/10/10 7/11/11 8/12/12
f 9/13/13 10/14/14 11/15/15
f 9/16/16 11/17/17 12/18/18
f 13/19/19 14/20/20 15/21/21
f 13/22/22 15/23/23 16/24/24
f 17/25/25 14/26/26 13/27/27
f 17/28/28 13/29/29 18/30/30
f 18/31/31 13/32/32 16/33/33
f 18/34/34 16/35/35 19/36/36
f 16/37/37 15/38/38 20/39/39
f 16/40/40 20/41/41 19/42/42
f 20/43/43 17/44/44 18/45/45
f 20/46/46 18/47/47 19/48/48
f 21/49/49 8/50/50 7/51/51
f 21/52/52 7/53/53 22/54/54
f 23/55/55 24/56/56 15/57/57
f 23/58/58 15/59/59 25/60/60
f 26/61/61 25/62/62 15/63/63
f 26/64/64 15/65/65 27/66/66
f 28/67/67 26/68/68 27/69/69
f 28/70/70 27/71/71 29/72/72
f 30/73/73 31/74/74 32/75/75
f 30/76/76 32/77/77 33/78/78
f 34/79/79 31/80/80 30/81/81
f 34/82/82 30/83/83 35/84/84
f 35/85/85 30/86/86 33/87/87
f 35/88/88 33/89/89 36/90/90
f 33/91/91 32/92/92 25/93/93
f 33/94/94 25/95/95 36/96/96
f 25/97/97 34/98/98 35/99/99
f 25/100/100 35/101/101 36/102/102
f 26/103/103 37/104/104 38/105/105
f 26/106/106 38/107/107 25/108/108
f 38/109/109 39/110/110 23/111/111
f 38/112/112 23/113/113 25/114/114
f 38/115/115 37/116/116 40/117/117
f 38/118/118 40/119/119 39/120/120
f 41/121/121 42/122/122 43/123/123
f 41/124/124 43/125/125 44/126/126
f 45/127/127 43/128/128 42/129/129
f 45/130/130 42/131/131 46/132/132
f 47/133/133 46/134/134 42/135/135
f 47/136/136 42/137/137 41/138/138
f 45/139/139 48/140/140 44/141/141
f 45/142/142 44/143/143 43/144/144
f 49/145/145 50/146/146 51/147/147
f 49/148/148 51/149/149 52/150/150
f 54/151/151 49/152/152 52/153/153
f 54/154/154 52/155/155 53/156/156
f 51/157/157 55/158/158 53/159/159
f 51/160/160 53/161/161 52/162/162
f 50/163/163 48/164/164 56/165/165
f 50/166/166 56/167/167 55/168/168
f 50/169/169 55/170/170 51/171/171
f 53/172/172 55/173/173 56/174/174
f 53/175/175 56/176/176 54/177/177
f 57/178/178 58/179/179 59/180/180
f 57/181/181 59/182/182 60/183/183
f 61/184/184 57/185/185 60/186/186
f 49/187/187 54/188/188 62/189/189
f 50/190/190 49/191/191 62/192/192
f 50/193/193 62/194/194 63/195/195
f 64/196/196 65/197/197 66/198/198
f 64/199/199 66/200/200 67/201/201
f 66/202/202 65/203/203 68/204/204
f 66/205/205 68/206/206 62/207/207
f 66/208/208 62/209/209 54/210/210
f 69/211/211 68/212/212 65/213/213
f 69/214/214 65/215/215 64/216/216
f 69/217/217 64/218/218 67/219/219
f 69/220/220 67/221/221 70/222/222
f 69/223/223 70/224/224 63/225/225
f 69/226/226 63/227/227 62/228/228
f 69/229/229 62/230/230 68/231/231
f 10/232/232 9/233/233 57/234/234
f 10/235/235 57/236/236 61/237/237
# stone012, 72 grouped triangles

usemtl textures/stone/stone01
o stone012
g stone012

f 6/238/238 5/239/239 8/240/240
f 6/241/241 8/242/242 7/243/243
f 71/244/244 72/245/245 73/246/246
f 71/247/247 73/248/248 74/249/249
f 75/250/250 22/251/251 72/252/252
f 75/253/253 72/254/254 71/255/255
f 27/256/256 76/257/257 74/258/258
f 27/259/259 74/260/260 73/261/261
f 75/262/262 71/263/263 74/264/264
f 75/265/265 74/266/266 76/267/267
f 77/268/268 78/269/269 79/270/270
f 77/271/271 79/272/272 80/273/273
f 81/274/274 82/275/275 78/276/276
f 81/277/277 78/278/278 77/279/279
f 80/280/280 79/281/281 83/282/282
f 80/283/283 83/284/284 84/285/285
f 72/286/286 85/287/287 86/288/288
f 72/289/289 86/290/290 73/291/291
f 85/292/292 72/293/293 22/294/294
f 85/295/295 22/296/296 21/297/297
f 26/298/298 27/299/299 73/300/300
f 26/301/301 73/302/302 86/303/303
f 85/304/304 87/305/305 88/306/306
f 85/307/307 88/308/308 86/309/309
f 85/310/310 21/311/311 89/312/312
f 85/313/313 89/314/314 87/315/315
f 26/316/316 86/317/317 88/318/318
f 26/319/319 88/320/320 54/321/321
f 90/322/322 91/323/323 92/324/324
f 90/325/325 92/326/326 93/327/327
f 94/328/328 95/329/329 96/330/330
f 94/331/331 96/332/332 97/333/333
f 97/334/334 90/335/335 93/336/336
f 97/337/337 93/338/338 94/339/339
f 95/340/340 92/341/341 91/342/342
f 95/343/343 91/344/344 96/345/345
f 98/346/346 99/347/347 91/348/348
f 98/349/349 91/350/350 90/351/351
f 98/352/352 90/353/353 97/354/354
f 98/355/355 97/356/356 100/357/357
f 101/358/358 100/359/359 97/360/360
f 101/361/361 97/362/362 96/363/363
f 96/364/364 91/365/365 99/366/366
f 96/367/367 99/368/368 101/369/369
f 99/370/370 98/371/371 102/372/372
f 99/373/373 102/374/374 103/375/375
f 104/376/376 102/377/377 98/378/378
f 104/379/379 98/380/380 100/381/381
f 105/382/382 104/383/383 100/384/384
f 105/385/385 100/386/386 101/387/387
f 101/388/388 99/389/389 103/390/390
f 101/391/391 103/392/392 105/393/393
f 106/394/394 107/395/395 108/396/396
f 106/397/397 108/398/398 109/399/399
f 110/400/400 111/401/401 107/402/402
f 110/403/403 107/404/404 106/405/405
f 67/406/406 66/407/407 109/408/408
f 67/409/409 109/410/410 108/411/411
f 67/412/412 108/413/413 107/414/414
f 67/415/415 107/416/416 111/417/417
f 112/418/418 113/419/419 114/420/420
f 112/421/421 114/422/422 115/423/423
f 116/424/424 117/425/425 113/426/426
f 116/427/427 113/428/428 112/429/429
f 115/430/430 114/431/431 118/432/432
f 115/433/433 118/434/434 119/435/435
f 87/436/436 106/437/437 109/438/438
f 87/439/439 109/440/440 88/441/441
f 110/442/442 106/443/443 87/444/444
f 110/445/445 87/446/446 89/447/447
f 88/448/448 109/449/449 66/450/450
f 88/451/451 66/452/452 54/453/453
# blue_marble2, 37 grouped triangles

usemtl textures/evil2_misc/blue_marble
o blue_marble2
g blue_marble2

f 120/454/454 121/455/455 122/456/456
f 120/457/457 122/458/458 123/459/459
f 121/460/460 41/461/461 124/462/462
f 121/463/463 124/464/464 122/465/465
f 125/466/466 1/467/467 4/468/468
f 125/469/469 4/470/470 126/471/471
f 110/472/472 125/473/473 126/474/474
f 110/475/475 126/476/476 22/477/477
f 11/478/478 4/479/479 1/480/480
f 11/481/481 1/482/482 10/483/483
f 127/484/484 128/485/485 129/486/486
f 127/487/487 129/488/488 123/489/489
f 130/490/490 127/491/491 123/492/492
f 66/493/493 110/494/494 22/495/495
f 66/496/496 22/497/497 27/498/498
f 131/499/499 66/500/500 27/501/501
f 131/502/502 27/503/503 29/504/504
f 4/505/505 3/506/506 132/507/507
f 4/508/508 132/509/509 126/510/510
f 126/511/511 132/512/512 21/513/513
f 126/514/514 21/515/515 22/516/516
f 8/517/517 3/518/518 4/519/519
f 8/520/520 4/521/521 7/522/522
f 54/523/523 133/524/524 28/525/525
f 54/526/526 28/527/527 26/528/528
f 2/529/529 134/530/530 132/531/531
f 2/532/532 132/533/533 3/534/534
f 21/535/535 132/536/536 134/537/537
f 21/538/538 134/539/539 89/540/540
f 2/541/541 3/542/542 12/543/543
f 2/544/544 12/545/545 9/546/546
f 89/547/547 134/548/548 125/549/549
f 89/550/550 125/551/551 110/552/552
f 1/553/553 125/554/554 134/555/555
f 1/556/556 134/557/557 2/558/558
f 1/559/559 2/560/560 5/561/561
f 1/562/562 5/563/563 6/564/564
# Black2, 30 grouped triangles

usemtl textures/Go/Black
o Black2
g Black2

f 29/565/565 11/566/566 10/567/567
f 29/568/568 10/569/569 131/570/570
f 27/571/571 15/572/572 135/573/573
f 27/574/574 135/575/575 136/576/576
f 24/577/577 127/578/578 135/579/579
f 24/580/580 135/581/581 15/582/582
f 136/583/583 135/584/584 127/585/585
f 136/586/586 127/587/587 124/588/588
f 137/589/589 138/590/590 139/591/591
f 137/592/592 139/593/593 48/594/594
f 140/595/595 141/596/596 139/597/597
f 140/598/598 139/599/599 138/600/600
f 140/601/601 142/602/602 58/603/603
f 140/604/604 58/605/605 141/606/606
f 143/607/607 144/608/608 145/609/609
f 143/610/610 145/611/611 146/612/612
f 147/613/613 146/614/614 145/615/615
f 147/616/616 145/617/617 148/618/618
f 149/619/619 150/620/620 147/621/621
f 149/622/622 147/623/623 148/624/624
f 84/625/625 81/626/626 77/627/627
f 84/628/628 77/629/629 80/630/630
f 151/631/631 152/632/632 153/633/633
f 151/634/634 153/635/635 154/636/636
f 155/637/637 154/638/638 153/639/639
f 155/640/640 153/641/641 156/642/642
f 157/643/643 158/644/644 155/645/645
f 157/646/646 155/647/647 156/648/648
f 119/649/649 116/650/650 112/651/651
f 119/652/652 112/653/653 115/654/654
